<?xml version="1.0" standalone="no"?>
<!DOCTYPE svg PUBLIC "-//W3C//DTD SVG 1.1//EN" "http://www.w3.org/Graphics/SVG/1.1/DTD/svg11.dtd" >
<svg xmlns="http://www.w3.org/2000/svg">
<metadata>
<json>
<![CDATA[
{
	"fontFamily": "simbols_web_AJtgn_bold",
	"majorVersion": 1,
	"minorVersion": 0,
	"version": "Version 1.0",
	"fontId": "simbols_web_AJtgn_bold",
	"psName": "simbols_web_AJtgn_bold",
	"subFamily": "Regular",
	"fullName": "simbols_web_AJtgn_bold",
	"description": "Font generated by IcoMoon."
}
]]>
</json>
</metadata>
<defs>
<font id="simbols_web_AJtgn_bold" horiz-adv-x="1024">
<font-face units-per-em="1024" ascent="716.8" descent="-307.2" />
<missing-glyph horiz-adv-x="1024" />
<glyph unicode="&#x20;" horiz-adv-x="340.992" d="" />
<glyph unicode="&#x41;" glyph-name="logoAJtgn_horitzontal_positiu" data-tags="logoAJtgn_horitzontal_positiu" horiz-adv-x="1763" d="M722.774 122.787c0 0 5.438 21.136 5.438 21.136 1.852 6.67 3.743 16.517 5.656 23.566 0 0 0.376 0 0.376 0 1.889-7.049 4.348-16.7 6.249-23.422 0 0 5.789-21.281 5.789-21.281s-23.508 0-23.508 0zM750.981 99.256c0 0 8.078-27.481 8.078-27.481s36.709 0 36.709 0c0 0-37.836 118.571-37.836 118.571s-45.175 0-45.175 0c0 0-36.915-118.571-36.915-118.571s35.244 0 35.244 0c0 0 7.121 27.481 7.121 27.481s32.773 0 32.773 0zM849.573 139c0 0 0 28.111 0 28.111 1.732 0.387 5.086 0.727 11.481 0.727 11.288-0.195 17.525-5.088 17.525-14.063 0-8.794-7.351-14.775-20.141-14.775 0 0-8.865 0-8.865 0s0 0 0 0zM815.879 71.781c0 0 33.694 0 33.694 0s0 44.509 0 44.509c0 0 5.45 0 5.45 0 10.562 0 15.261-2.966 18.663-17.235 3.779-14.581 6.964-23.738 8.854-27.274 0 0 34.82 0 34.82 0-2.434 4.554-6.588 21.836-10.549 33.948-3.197 10.21-7.715 17.803-16.18 21.135 0 0 0 0.689 0 0.689 9.968 3.356 21.873 13.892 21.873 28.67 0 11.614-4.578 20.080-12.656 25.869-9.593 6.673-23.533 9.119-42.923 9.119-16.944 0-31.429-1.040-41.045-2.445 0 0 0-116.985 0-116.985zM975.121 139c0 0 0 28.111 0 28.111 1.732 0.387 5.123 0.727 11.518 0.727 11.239-0.195 17.5-5.088 17.5-14.063 0-8.794-7.351-14.775-20.165-14.775 0 0-8.854 0-8.854 0s0 0 0 0zM941.451 188.766c0 0 0-116.985 0-116.985s33.67 0 33.67 0c0 0 0 44.509 0 44.509s5.45 0 5.45 0c10.537 0 15.273-2.966 18.663-17.235 3.815-14.581 6.977-23.738 8.866-27.274 0 0 34.82 0 34.82 0-2.434 4.554-6.565 21.836-10.537 33.948-3.209 10.21-7.715 17.803-16.169 21.135 0 0 0 0.689 0 0.689 9.944 3.356 21.825 13.892 21.825 28.67 0 11.614-4.541 20.080-12.607 25.869-9.616 6.673-23.556 9.119-42.947 9.119-16.968 0-31.441-1.040-41.034-2.445 0 0 0 0 0 0zM1110.383 122.787c0 0 5.474 21.136 5.474 21.136 1.866 6.67 3.755 16.517 5.632 23.566 0 0 0.424 0 0.424 0 1.829-7.049 4.275-16.7 6.189-23.422 0 0 5.789-21.281 5.789-21.281s-23.508 0-23.508 0zM1138.638 99.256c0 0 8.078-27.481 8.078-27.481s36.709 0 36.709 0c0 0-37.823 118.571-37.823 118.571s-45.175 0-45.175 0c0 0-38.478-118.571-38.478-118.571s36.77 0 36.77 0c0 0 7.145 27.481 7.145 27.481s32.773 0 32.773 0zM1405.409 166.771c18.083 0 25.422-18.022 25.422-35.752 0-21.413-9.992-35.778-25.422-35.778-17.040 0-26.16 15.334-26.16 35.778 0 17.502 7.049 35.752 26.16 35.752zM1406.451 193.004c-41.13 0-68.356-24.536-68.356-62.978 0-38.415 28.826-61.272 66.273-61.272 34.323 0 67.57 19.935 67.57 63.478 0 35.74-26.185 60.772-65.487 60.772zM1488.223 152.929c0 0 0-81.148 0-81.148s40.573 0 40.573 0c0 0 0 68.755 0 68.755 0 3.404 0.521 6.808 1.575 9.244 2.676 6.803 9.337 13.879 20.48 13.879 14.739 0 20.577-10.476 20.577-25.81 0 0 0-66.068 0-66.068s40.536 0 40.536 0c0 0 0 70.707 0 70.707 0 35.075-20.008 50.515-46.689 50.515-21.534 0-34.904-11.445-40.258-19.016 0 0-0.8 0-0.8 0s-1.841 16.352-1.841 16.352c0 0-35.207 0-35.207 0 0.532-10.5 1.054-22.514 1.054-37.411 0 0 0 0 0 0zM1670.672 122.787c0 0 5.487 21.136 5.487 21.136 1.853 6.67 3.767 16.517 5.632 23.566 0 0 0.351 0 0.351 0 1.926-7.049 4.348-16.7 6.249-23.422 0 0 5.777-21.281 5.777-21.281s-23.497 0-23.497 0zM1698.916 99.256c0 0 8.115-27.481 8.115-27.481s36.673 0 36.673 0c0 0-37.823 118.571-37.823 118.571s-45.199 0-45.199 0c0 0-36.891-118.571-36.891-118.571s35.195 0 35.195 0c0 0 7.17 27.481 7.17 27.481s32.761 0 32.761 0zM1282.109 132.595c0 0 0-21.011 0-21.011 0-13.226-14.522-21.851-23.387-21.851-17.586 0-27.457 11.919-27.457 30.039 0 31.283 10.682 40.474 27.457 40.474 8.866 0 23.387-4.624 23.387-27.65zM1323.832 76.619c0 0 0 71.71 0 71.71 0 21.265 0.545 33.221 1.126 42.256 0 0-36.261 0-36.261 0s-1.405-16.931-1.405-16.931c0 0-0.557 0-0.557 0-6.843 11.686-18.409 20.115-36.831 20.115-32.931 0-60.943-29.116-60.943-74.871 0-41.071 23.629-61.805 56.874-61.805 15.394 0 28.28 6.686 36.274 18.652 0 0 0.532 0 0.532 0s0-9.314 0-9.314c0-26.209-15.139-45.455-34.881-45.455-15.672 0-30.52 5.561-38.986 10.792 0 0-8.296-33.501-8.296-33.501 12.111-7.3 30.787-11.067 48.372-11.067 19.779 0 39.847 4.081 54.671 17.476 15.103 14.266 20.31 44.556 20.31 71.943 0 0 0 0 0 0zM795.041 274.054c0 0 9.87 26.198 9.87 26.198s9.544-26.198 9.544-26.198c0 0-19.414 0-19.414 0zM777.224 249.723c0 0 8.6 0 8.6 0s6.734 17.791 6.734 17.791c0 0 24.246 0 24.246 0s6.504-17.791 6.504-17.791c0 0 9.216 0 9.216 0s-22.515 59.323-22.515 59.323c0 0-9.446 0-9.446 0s-23.339-59.323-23.339-59.323zM879.498 309.043c0 0-8.308 0-8.308 0s0-39.53 0-39.53c0-5.003-0.4-8.406-1.248-10.21-1.368-2.942-4.311-4.408-8.792-4.408-3.161 0-5.547 0.825-7.049 2.46-1.513 1.635-2.277 4.069-2.277 7.265 0 0 0 4.264 0 4.264s-7.884 0-7.884 0c0 0 0-4.264 0-4.264 0-6.164 1.635-10.441 4.93-12.886 3.294-2.409 7.266-3.584 11.905-3.584 8.066 0 13.503 2.493 16.411 7.594 1.55 2.762 2.313 6.65 2.313 11.688 0 0 0 41.612 0 41.612zM910.275 309.046c0 0-8.478 0-8.478 0s0-33.294 0-33.294c0-7.327 1.017-12.948 3.088-16.872 3.742-7.158 10.839-10.73 21.316-10.73 10.464 0 17.634 3.573 21.365 10.73 2.046 3.924 3.101 9.546 3.101 16.872 0 0 0 33.294 0 33.294s-8.466 0-8.466 0c0 0 0-36.662 0-36.662 0-4.252-0.715-7.679-2.083-10.21-2.579-4.651-7.436-6.963-14.57-6.963-5.982 0-10.222 2.143-12.741 6.443-1.696 2.832-2.531 6.455-2.531 10.73 0 0 0 36.662 0 36.662s0 0 0 0zM1111.732 274.054c0 0 9.931 26.198 9.931 26.198s9.52-26.198 9.52-26.198c0 0-19.451 0-19.451 0zM1093.977 249.723c0 0 8.599 0 8.599 0s6.722 17.791 6.722 17.791c0 0 24.26 0 24.26 0s6.48-17.791 6.48-17.791c0 0 9.192 0 9.192 0s-22.467 59.323-22.467 59.323c0 0-9.483 0-9.483 0s-23.302-59.323-23.302-59.323zM1165.606 309.046c0 0 0-59.323 0-59.323s7.956 0 7.956 0c0 0 0 35.038 0 35.038 0 1.369-0.048 3.573-0.133 6.553-0.073 2.966-0.109 5.172-0.109 6.623 0 0 0 1.842 0 1.842s17.78-50.056 17.78-50.056c0 0 8.332 0 8.332 0s17.682 50.056 17.682 50.056c0-3.235-0.037-6.224-0.097-9.036-0.048-2.774-0.085-4.808-0.085-5.982 0 0 0-35.038 0-35.038s7.958 0 7.958 0c0 0 0 59.323 0 59.323s-11.869 0-11.869 0c0 0-17.682-50.167-17.682-50.167s-17.78 50.167-17.78 50.167c0 0-11.953 0-11.953 0s0 0 0 0zM1511.615 256.615c0 0-14.655 0-14.655 0s0 45.502 0 45.502c0 0 14.558 0 14.558 0 6.613 0 11.421-2.037 14.388-6.082 3.003-4.069 4.445-9.773 4.445-17.15 0-1.889-0.195-3.96-0.594-6.201-0.715-3.728-1.889-6.794-3.475-9.192-2.072-3.001-4.663-4.988-7.86-6.029-1.793-0.57-4.057-0.848-6.807-0.848 0 0 0 0 0 0zM1488.531 249.723c0 0 24.646 0 24.646 0 10.428 0 17.84 4.518 22.128 13.492 2.423 5.088 3.622 10.804 3.622 17.078 0 8.149-2.011 14.858-6.189 20.068-4.591 5.801-11.094 8.685-19.488 8.685 0 0-24.718 0-24.718 0s0-59.323 0-59.323zM20.48 219.823c0 14.050 1.26 27.433 3.61 40.112 2.592-0.52 5.268-0.834 8.029-0.834 21.704 0 39.265-17.576 39.265-39.279 0-21.689-17.562-39.288-39.265-39.288-2.737 0-5.437-0.29-8.029-0.822-2.35 12.69-3.61 26.062-3.61 40.11zM119.124 58.733c0.158 1.283 0.23 2.626 0.23 3.948 0 21.704-17.597 39.288-39.289 39.288s-39.265 17.587-39.265 39.291c0 21.68 17.574 39.3 39.265 39.3s39.289 17.575 39.289 39.267c0 21.715-17.597 39.276-39.289 39.276s-39.265 17.609-39.265 39.3c0 21.691 17.574 39.302 39.265 39.302 0 0 0-0.024 0-0.024 21.691 0 39.289 17.585 39.289 39.288 0 1.334-0.073 2.652-0.266 3.974 14.062 5.97 29.418 10.343 45.877 13.007 2.508-5.135 3.913-10.878 3.913-16.981 0-21.704-17.598-39.288-39.29-39.288 0 0 21.691 0.024 0 0.024s-39.326-17.611-39.326-39.302c0-21.691 17.634-39.3 39.326-39.3s39.29-17.561 39.29-39.276c0-21.692-17.598-39.267-39.29-39.267s-39.326-17.62-39.326-39.3c0-21.704 17.634-39.291 39.326-39.291s39.29-17.584 39.29-39.288c0-6.091-1.405-11.833-3.864-16.954-16.496 2.676-31.865 7.034-45.891 13.007zM211.448 42.895c3.403 5.813 5.377 12.546 5.377 19.788 0 21.704-17.549 39.279-39.289 39.279-21.679 0-39.277 17.609-39.277 39.288 0 21.704 17.597 39.277 39.277 39.277 21.74 0 39.289 17.611 39.289 39.291 0 21.727-17.549 39.288-39.289 39.288-21.679 0-39.277 17.623-39.277 39.303 0 21.679 17.597 39.276 39.277 39.276 21.74 0 39.289 17.587 39.289 39.291 0 7.229-1.974 13.986-5.377 19.826 18.942-0.583 36.661-3.199 53.011-7.715 1.21-3.805 1.913-7.862 1.913-12.111 0-21.704-17.597-39.291-39.301-39.291-21.679 0-39.277-17.596-39.277-39.276s17.597-39.303 39.277-39.303c21.704 0 39.301-17.561 39.301-39.288 0-21.68-17.597-39.291-39.301-39.291-21.679 0-39.277-17.573-39.277-39.277 0-21.679 17.597-39.288 39.277-39.288 21.704 0 39.301-17.575 39.301-39.279 0-4.225-0.653-8.294-1.913-12.097-16.35-4.53-34.057-7.123-53.011-7.691zM383.462 182.119c-5.026-28.581-15.793-53.604-31.526-74.252-11.252 6.924-18.699 19.255-18.699 33.389 0 21.68 17.597 39.28 39.301 39.28 3.779 0 7.436 0.567 10.924 1.584zM351.579 332.281c15.939-20.745 26.839-45.925 31.889-74.738-3.488 0.991-7.145 1.562-10.924 1.562-21.704 0-43.65 17.596-43.65 39.302 0 14.412 9.75 27.044 22.685 33.874zM313.125 72.101c-4.19 17.15-19.657 29.864-38.066 29.864-21.691 0-39.277 17.587-39.277 39.291 0 21.68 17.585 39.277 39.277 39.277 21.679 0 39.278 17.598 39.278 39.291 0 21.715-17.598 39.276-39.278 39.276-21.691 0-39.277 17.609-39.277 39.311 0 21.68 17.585 39.303 39.277 39.303 0 0 0-0.024 0-0.024 18.458 0 33.876 12.717 38.078 29.867 11.142-7.209 21.195-15.624 29.999-25.205-5.559-2.969-11.832-4.662-18.591-4.662 0 0 0 0.024 0 0.024-21.691 0-39.265-17.623-39.265-39.303 0-21.703 17.574-39.311 39.265-39.311 21.679 0 39.278-17.561 39.278-39.276 0-21.692-17.598-39.291-39.278-39.291-21.691 0-39.265-17.596-39.265-39.277 0-21.704 17.574-39.291 39.265-39.291 6.71 0 13.031-1.682 18.567-4.648-8.805-9.568-18.833-17.999-29.988-25.216zM578.301 72.001c0 0 59.116 0 59.116 0s0 177.773 0 177.773c0 0 79.837 0 79.837 0s0 59.161 0 59.161c0 0-217.713 0-217.713 0s0-59.161 0-59.161c0 0 78.76 0 78.76 0s0-177.773 0-177.773zM972.51 249.723c0 0 7.981 0 7.981 0s0 47.987 0 47.987c0 0 31.356-47.987 31.356-47.987s9.375 0 9.375 0c0 0 0 59.323 0 59.323s-7.97 0-7.97 0c0 0 0-47.937 0-47.937s-30.896 47.937-30.896 47.937c0 0-9.846 0-9.846 0s0-59.323 0-59.323zM1038.692 309.046c0 0 0-7.049 0-7.049s20.831 0 20.831 0c0 0 0-52.274 0-52.274s8.466 0 8.466 0c0 0 0 52.274 0 52.274s20.844 0 20.844 0c0 0 0 7.049 0 7.049s-50.141 0-50.141 0zM1247.451 249.723c0 0 45.611 0 45.611 0s0 7.037 0 7.037c0 0-37.448 0-37.448 0s0 20.178 0 20.178c0 0 34.033 0 34.033 0s0 6.842 0 6.842c0 0-34.033 0-34.033 0s0 17.998 0 17.998c0 0 36.83 0 36.83 0s0 7.268 0 7.268c0 0-44.994 0-44.994 0s0-59.323 0-59.323zM1313.235 249.723c0 0 7.982 0 7.982 0s0 47.987 0 47.987c0 0 31.344-47.987 31.344-47.987s9.386 0 9.386 0c0 0 0 59.323 0 59.323s-7.993 0-7.993 0c0 0 0-47.937 0-47.937s-30.884 47.937-30.884 47.937c0 0-9.834 0-9.834 0s0-59.323 0-59.323zM1379.382 309.046c0 0 0-7.049 0-7.049s20.904 0 20.904 0c0 0 0-52.274 0-52.274s8.43 0 8.43 0c0 0 0 52.274 0 52.274s20.808 0 20.808 0c0 0 0 7.049 0 7.049s-50.141 0-50.141 0zM1566.26 249.723c0 0 45.586 0 45.586 0s0 7.037 0 7.037c0 0-37.412 0-37.412 0s0 20.178 0 20.178c0 0 34.045 0 34.045 0s0 6.842 0 6.842c0 0-34.045 0-34.045 0s0 17.998 0 17.998c0 0 36.844 0 36.844 0s0 7.268 0 7.268c0 0-45.018 0-45.018 0s0-59.323 0-59.323z" />
<glyph unicode="&#x42;" glyph-name="logoAJtgn_horitzontal_negatiu" data-tags="logoAJtgn_horitzontal_negatiu" horiz-adv-x="1763" d="M213.701 61.978c0-7.168-2.132-13.838-5.486-19.665-2.665-0.089-5.212-0.318-7.944-0.318-13.468 0-26.342 1.044-38.648 3.058 2.474 5.168 3.976 10.862 3.976 16.926 0 21.722-17.688 39.379-39.395 39.305-21.708 0-39.424 17.569-39.424 39.366 0 21.752 17.688 39.38 39.336 39.38 21.752 0.014 39.394 17.628 39.424 39.38-0.059 21.722-17.672 39.291-39.424 39.291s-39.395 17.621-39.425 39.35c-0.045 21.723 17.673 39.366 39.291 39.395 21.783 0 39.425 17.65 39.381 39.381-0.031 6.048-1.518 11.809-3.991 16.895 12.275 2.006 25.135 3.079 38.661 3.079 2.695 0 5.257-0.177 7.885-0.296 3.383-5.797 5.464-12.483 5.464-19.65 0.015-21.685-17.591-39.41-39.231-39.321-21.841-0.089-39.343-17.642-39.343-39.469 0.014-21.715 17.546-39.291 39.299-39.291 21.714 0 39.365-17.598 39.409-39.336 0-21.753-17.62-39.395-39.291-39.41-21.811 0-39.402-17.584-39.284-39.38 0-21.722 17.532-39.291 39.284-39.291 21.789-0.045 39.366-17.658 39.476-39.38zM115.943 61.978c0-1.252-0.238-2.415-0.364-3.695-50.567 21.663-84.387 63.952-95.1 120.834 2.62 0.556 5.316 0.838 7.988 0.838 21.737 0 39.35 17.642 39.35 39.366-0.081 21.751-17.688 39.35-39.394 39.276-2.702 0-5.368 0.311-7.944 0.859 10.566 56.919 44.326 99.246 94.804 120.946 0.163-1.199 0.481-2.398 0.481-3.671 0-21.664-17.644-39.285-39.38-39.314-21.685-0.044-39.306-17.642-39.262-39.41-0.044-21.715 17.673-39.306 39.366-39.306 21.663 0 39.366-17.628 39.366-39.379 0-21.664-17.554-39.292-39.366-39.366-21.692 0-39.291-17.554-39.277-39.336 0-21.767 17.688-39.38 39.351-39.336 21.736-0.044 39.38-17.688 39.38-39.305zM310.022 71.587c-14.452-9.343-30.843-16.673-48.871-21.663 1.251 3.872 2.103 7.885 2.103 12.156 0.044 21.737-17.658 39.322-39.366 39.322-21.811-0.044-39.424 17.554-39.424 39.291 0 21.752 17.583 39.35 39.306 39.35 21.751 0.045 39.38 17.733 39.38 39.439 0 21.708-17.673 39.322-39.38 39.322-21.723-0.030-39.44 17.546-39.366 39.335-0.030 21.753 17.583 39.306 39.261 39.395 21.737 0 39.38 17.665 39.38 39.366 0 4.242-0.881 8.254-2.118 12.068 18.058-4.946 34.346-12.194 48.871-21.53-4.22-17.066-19.62-29.889-38.084-29.889-21.737 0-39.381-17.658-39.306-39.366 0-21.737 17.613-39.38 39.424-39.38 21.737 0 39.292-17.569 39.366-39.322 0-21.663-17.614-39.365-39.366-39.365-21.708-0.075-39.277-17.673-39.277-39.351 0-21.737 17.658-39.365 39.381-39.365 18.42 0 33.841-12.698 38.084-29.815zM348.81 107.524c-2.82-3.739-5.842-7.374-9.017-10.801-5.501 2.939-11.668 4.738-18.34 4.738-21.707-0.045-39.261 17.598-39.379 39.335 0 21.723 17.642 39.322 39.379 39.381 21.723 0.030 39.292 17.716 39.336 39.38-0.044 21.708-17.613 39.35-39.438 39.35-21.701-0.030-39.322 17.539-39.381 39.277 0 21.766 17.591 39.439 39.336 39.439 6.626 0 12.853 1.814 18.339 4.708 3.050-3.324 5.931-6.782 8.714-10.313-12.904-6.901-22.662-19.369-22.632-33.747 0-21.751 22.011-39.365 43.822-39.365 3.768 0 7.389-0.703 10.861-1.703 2.044-11.949 3.192-24.506 3.236-37.647 0-13.127-1.118-25.661-3.206-37.626-3.458-1.051-7.093-1.754-10.89-1.754-21.811 0-39.381-17.54-39.381-39.351 0-14.125 7.493-26.342 18.643-33.302zM575.784 71.706c0 0 59.171 0 59.171 0s-0.163 178.050-0.163 178.050c0 0 79.982 0.089 79.982 0.089s-0.075 59.245-0.075 59.245c0 0-218.060-0.147-218.060-0.147s0.015-59.304 0.015-59.304c0 0 78.908 0.074 78.908 0.074s0.221-178.006 0.221-178.006zM715.965 99.018c0 0 32.776 0 32.776 0s8.048-27.431 8.048-27.431c0 0 36.745 0 36.745 0s-37.996 118.747-37.996 118.747c0 0-45.164-0.044-45.164-0.044s-36.848-118.807-36.848-118.807c0 0 35.182 0.030 35.182 0.030s7.256 27.505 7.256 27.505c0 0 0 0 0 0zM720.437 122.621c0 0 5.419 21.115 5.419 21.115 1.851 6.774 3.724 16.606 5.665 23.684 0 0 0.355 0 0.355 0 1.85-7.078 4.294-16.762 6.241-23.477 0 0 5.841-21.278 5.841-21.278s-23.521-0.044-23.521-0.044zM813.738 71.587c0 0 33.76 0.030 33.76 0.030s0 44.644 0 44.644c0 0 5.406 0 5.406 0 10.549-0.067 15.288-2.998 18.717-17.273 3.798-14.66 6.959-23.78 8.906-27.342 0 0 34.813 0 34.813 0-2.37 4.635-6.53 21.878-10.536 34.005-3.28 10.247-7.708 17.85-16.288 21.152 0 0 0.074 0.719 0.074 0.719 9.966 3.339 21.841 13.948 21.841 28.77 0 11.579-4.554 20.027-12.66 25.884-9.684 6.686-23.559 9.159-43.001 9.084-16.999-0.045-31.481-1.059-41.128-2.473 0 0 0.096-117.2 0.096-117.2zM847.426 167.169c1.68 0.37 5.093 0.658 11.512 0.658 11.343-0.104 17.584-5.042 17.598-14.052-0.014-8.788-7.432-14.793-20.219-14.852 0 0-8.863 0-8.863 0s-0.029 28.246-0.029 28.246zM939.505 71.735c0 0 33.79 0 33.79 0s0 44.526 0 44.526c0 0 5.442 0.044 5.442 0.044 10.543 0 15.207-2.969 18.62-17.257 3.828-14.63 7.004-23.796 8.884-27.312 0 0 34.968 0.089 34.968 0.089-2.517 4.575-6.604 21.847-10.624 33.945-3.294 10.217-7.737 17.806-16.244 21.168 0 0-0.059 0.703-0.059 0.703 10.077 3.338 21.863 13.978 21.819 28.681 0.044 11.668-4.472 20.115-12.58 25.928-9.639 6.67-23.558 9.129-42.985 9.129-16.969 0-31.495-1.044-41.090-2.517 0 0 0.059-117.126 0.059-117.126zM973.251 167.257c1.607 0.362 5.020 0.733 11.475 0.733 11.32-0.238 17.502-5.109 17.502-14.096 0-8.803-7.285-14.852-20.145-14.882 0 0-8.788 0-8.788 0s-0.044 28.245-0.044 28.245zM1136.952 99.343c0 0 8.138-27.505 8.138-27.505s36.877 0 36.877 0c0 0-38.055 118.77-38.055 118.77s-45.252 0-45.252 0c0 0-38.44-118.784-38.44-118.784s36.863 0.014 36.863 0.014c0 0 7.108 27.505 7.108 27.505s32.761 0 32.761 0zM1108.716 122.976c0 0 5.442 21.101 5.442 21.101 1.969 6.73 3.753 16.584 5.619 23.618 0 0 0.356 0.029 0.356 0.029 1.903-7.063 4.456-16.791 6.24-23.454 0 0 5.917-21.338 5.917-21.338s-23.574 0.045-23.574 0.045zM1405.218 193.466c-41.121 0-68.492-24.632-68.447-63.176 0-38.365 28.977-61.28 66.426-61.28 34.457 0 67.772 19.998 67.772 63.694-0.089 35.7-26.357 60.762-65.751 60.762zM1404.189 167.124c18.094 0.103 25.483-17.925 25.483-35.715 0-21.442-9.937-35.834-25.388-35.834-17.006-0.030-26.223 15.288-26.252 35.745 0 17.613 7.033 35.804 26.157 35.804zM1487.272 72.083c0 0 40.587 0.074 40.587 0.074s-0.045 68.876-0.045 68.876c0 3.383 0.519 6.826 1.636 9.269 2.62 6.782 9.285 13.904 20.471 13.89 14.771 0.059 20.686-10.462 20.686-25.839 0 0 0-66.152 0-66.152s40.632 0 40.632 0c0 0-0.104 70.861-0.104 70.861 0 35.101-20.012 50.522-46.768 50.478-21.686 0.044-34.99-11.483-40.38-19.013 0 0-0.748 0-0.748 0s-1.903 16.362-1.903 16.362c0 0-35.241-0.030-35.241-0.030 0.532-10.477 1.073-22.559 1.073-37.456 0 0 0.103-81.321 0.103-81.321zM1698.269 99.765c0 0 8.174-27.489 8.174-27.489s36.804 0.074 36.804 0.074c0 0-38.055 118.717-38.055 118.717s-45.252-0.075-45.252-0.075c0 0-36.839-118.791-36.839-118.791s35.145 0 35.145 0c0 0 7.225 27.564 7.225 27.564s32.799 0 32.799 0zM1670.016 123.331c0 0 5.376 21.205 5.376 21.205 1.954 6.649 3.805 16.569 5.752 23.558 0 0 0.311 0.059 0.311 0.059 1.866-7.048 4.339-16.792 6.234-23.484 0 0 5.842-21.256 5.842-21.256s-23.515-0.082-23.515-0.082zM1322.51 148.682c0 21.3 0.526 33.272 1.074 42.282 0 0-36.338-0.044-36.338-0.044s-1.295-16.91-1.295-16.91c0 0-0.6 0.015-0.6 0.015-6.885 11.683-18.397 20.115-36.877 20.159-33.028-0.044-61.028-29.237-61.028-75.125 0.044-41.142 23.722-61.88 56.978-61.807 15.422 0 28.386 6.649 36.322 18.702 0 0 0.614 0 0.614 0s-0.058-9.388-0.058-9.388c0.058-26.209-15.111-45.518-34.901-45.532-15.689 0-30.6 5.531-39.047 10.817 0 0-8.255-33.613-8.255-33.613 12.127-7.27 30.8-11.084 48.332-11.039 19.864 0 40.024 4.094 54.905 17.532 15.022 14.348 20.279 44.659 20.205 72.104 0 0-0.030 71.846-0.030 71.846zM1280.673 132.837c0 0 0.074-20.975 0.074-20.975 0-13.244-14.555-21.937-23.373-21.915-17.614-0.023-27.505 11.867-27.609 30.051 0.030 31.347 10.669 40.542 27.535 40.587 8.891 0.074 23.373-4.664 23.373-27.749zM774.876 249.815c0 0 8.625-0.044 8.625-0.044s6.663 17.865 6.663 17.865c0 0 24.329 0.075 24.329 0.075s6.455-17.866 6.455-17.866c0 0 9.263-0.030 9.263-0.030s-22.575 59.496-22.575 59.496c0 0-9.483 0-9.483 0s-23.278-59.496-23.278-59.496zM792.712 274.151c0 0 9.876 26.283 9.876 26.283s9.581-26.283 9.581-26.283c0 0-19.457 0-19.457 0zM877.284 309.311c0 0-8.285 0-8.285 0s0-39.603 0-39.603c0-4.975-0.348-8.462-1.281-10.253-1.399-2.858-4.265-4.435-8.781-4.42-3.198 0-5.494 0.872-7.063 2.443-1.474 1.591-2.244 4.094-2.273 7.358 0 0 0 4.286 0 4.286s-7.959-0.044-7.959-0.044c0 0 0-4.242 0-4.242 0-6.167 1.68-10.477 5.093-12.919 3.236-2.414 7.211-3.576 11.802-3.576 8.063 0 13.6 2.473 16.466 7.565 1.532 2.791 2.31 6.708 2.31 11.728 0 0-0.030 41.676-0.030 41.676zM899.643 309.311c0 0 0-33.361 0-33.361 0-7.27 0.999-12.89 3.072-16.881 3.798-7.181 10.906-10.727 21.382-10.727 10.49 0 17.628 3.576 21.426 10.727 2.020 4.036 3.050 9.61 3.095 16.881 0 0-0.074 33.391-0.074 33.391s-8.433 0.030-8.433 0.030c0 0 0.044-36.686 0.044-36.686-0.044-4.332-0.711-7.745-2.125-10.291-2.614-4.649-7.411-6.989-14.593-6.989-6.019 0-10.246 2.147-12.794 6.478-1.688 2.881-2.517 6.427-2.517 10.699 0 0-0.081 36.789-0.081 36.789s-8.403-0.059-8.403-0.059zM970.526 249.964c0 0 7.996 0.030 7.996 0.030s-0.059 48.057-0.059 48.057c0 0 31.413-48.057 31.413-48.057s9.418 0.030 9.418 0.030c0 0 0 59.392 0 59.392s-8.004 0.030-8.004 0.030c0 0 0-48.094 0-48.094s-31.007 48.065-31.007 48.065c0 0-9.831-0.044-9.831-0.044s0.074-59.407 0.074-59.407zM1036.737 309.445c0 0 0-7.018 0-7.018s20.894-0.045 20.894-0.045c0 0 0.044-52.314 0.044-52.314s8.492-0.044 8.492-0.044c0 0-0.044 52.403-0.044 52.403s20.886 0 20.886 0c0 0 0 7.092 0 7.092s-50.271-0.074-50.271-0.074zM1092.161 250.097c0 0 8.604-0.030 8.604-0.030s6.789 17.85 6.789 17.85c0 0 24.321 0 24.321 0s6.478-17.821 6.478-17.821c0 0 9.15 0 9.15 0s-22.559 59.392-22.559 59.392c0 0-9.462 0-9.462 0s-23.322-59.392-23.322-59.392zM1109.981 274.433c0 0 9.943 26.224 9.943 26.224s9.491-26.224 9.491-26.224c0 0-19.434 0-19.434 0zM1163.888 309.607c0 0 0-59.511 0-59.511s8.003 0.037 8.003 0.037c0 0-0.044 35.101-0.044 35.101 0.044 1.325-0.030 3.517-0.119 6.509-0.103 3.028-0.118 5.263-0.118 6.767 0 0 0 1.696 0 1.696s17.879-50.072 17.879-50.072c0 0 8.345 0 8.345 0s17.613 50.175 17.613 50.175c0.045-3.213 0-6.213 0-9.040-0.074-2.799-0.14-4.842-0.14-6.034 0 0 0.067-35.101 0.067-35.101s7.967 0 7.967 0c0 0-0.045 59.504-0.045 59.504s-11.935-0.030-11.935-0.030c0 0-17.672-50.271-17.672-50.271s-17.739 50.227-17.739 50.227c0 0-12.061 0.044-12.061 0.044s0 0 0 0zM1245.883 309.637c0 0 0-59.429 0-59.429s45.71 0 45.71 0c0 0 0.029 7.070 0.029 7.070s-37.513-0.030-37.513-0.030c0 0 0 20.175 0 20.175s34.1 0.030 34.1 0.030c0 0-0.044 6.93-0.044 6.93s-34.028-0.075-34.028-0.075c0 0-0.029 18.013-0.029 18.013s36.803 0 36.803 0c0 0 0 7.315 0 7.315s-45.028 0-45.028 0c0 0 0 0 0 0zM1311.813 250.208c0 0 7.914 0 7.914 0s0 48.093 0 48.093c0 0 31.539-48.049 31.539-48.049s9.344 0 9.344 0c0 0-0.030 59.488-0.030 59.488s-7.959-0.059-7.959-0.059c0 0 0-48.035 0-48.035s-31.007 48.020-31.007 48.020c0 0-9.832 0-9.832 0s0.030-59.459 0.030-59.459zM1428.287 309.77c0 0-50.183 0-50.183 0s-0.073-7.137-0.073-7.137c0 0 20.884 0.045 20.884 0.045s0.075-52.337 0.075-52.337c0 0 8.536 0 8.536 0s-0.074 52.337-0.074 52.337c0 0 20.864 0 20.864 0s-0.030 7.092-0.030 7.092c0 0 0 0 0 0zM1487.435 250.341c0 0 24.676 0 24.676 0 10.447 0.118 17.835 4.56 22.107 13.585 2.429 5.064 3.68 10.772 3.68 17.117 0 8.152-1.992 14.845-6.227 20.071-4.561 5.782-11.112 8.699-19.515 8.699 0 0-24.84 0-24.84 0s0.119-59.473 0.119-59.473zM1510.579 257.278c0 0-14.696 0-14.696 0s0 45.555 0 45.555c0 0 14.555 0.044 14.555 0.044 6.605-0.044 11.402-2.013 14.422-6.122 2.954-4.013 4.443-9.735 4.443-17.095 0-1.918-0.222-4.020-0.622-6.256-0.703-3.769-1.823-6.797-3.503-9.285-2.013-2.873-4.619-4.901-7.81-5.96-1.799-0.607-4.065-0.882-6.789-0.882 0 0 0 0 0 0zM1565.239 250.459c0 0 45.682 0 45.682 0s0.044 7.064 0.044 7.064c0 0-37.514 0-37.514 0s0 20.145 0 20.145c0 0 34.094 0.030 34.094 0.030s0.044 6.849 0.044 6.849c0 0-34.138 0-34.138 0s0 17.983 0 17.983c0 0 36.892 0 36.892 0s0 7.381 0 7.381c0 0-45.146-0.067-45.146-0.067s0.043-59.385 0.043-59.385z" />
<glyph unicode="&#x43;" glyph-name="logoAJtgn_vertical_positiu" data-tags="logoAJtgn_vertical_positiu" d="M64.855-65.567c0 0 48.656 0 48.656 0s0 146.339 0 146.339c0 0 65.673 0 65.673 0s0 48.678 0 48.678c0 0-179.184 0-179.184 0s0-48.678 0-48.678c0 0 64.855 0 64.855 0s0-146.339 0-146.339zM206.969-43.080c0 0 6.641-22.639 6.641-22.639s30.228 0 30.228 0c0 0-31.153 97.579-31.153 97.579s-37.172 0-37.172 0c0 0-30.376-97.579-30.376-97.579s28.99 0 28.99 0c0 0 5.907 22.639 5.907 22.639s26.936 0 26.936 0zM203.091-23.76c0 0-19.38 0-19.38 0s4.503 17.394 4.503 17.394c1.511 5.47 3.095 13.569 4.685 19.388 0 0 0.28 0 0.28 0 1.541-5.819 3.55-13.765 5.119-19.285 0 0 4.793-17.498 4.793-17.498s0 0 0 0zM260.361 30.479c0 0 0-96.196 0-96.196s27.78 0 27.78 0c0 0 0 36.62 0 36.62s4.492 0 4.492 0c8.669 0 12.519-2.454 15.327-14.266 3.112-11.964 5.701-19.44 7.275-22.355 0 0 28.656 0 28.656 0-2.027 3.733-5.402 17.927-8.664 27.918-2.623 8.413-6.38 14.632-13.351 17.301 0 0 0 0.665 0 0.665 8.21 2.73 17.997 11.435 17.997 23.624 0 9.48-3.72 16.547-10.397 21.228-7.883 5.461-19.344 7.536-35.287 7.536-13.994 0-25.929-0.881-33.826-2.075 0 0 0 0 0 0zM288.143-10.477c0 0 0 23.211 0 23.211 1.349 0.286 4.168 0.534 9.457 0.534 9.296-0.093 14.386-4.172 14.386-11.558 0-7.227-6.067-12.188-16.587-12.188 0 0-7.254 0-7.254 0s0 0 0 0zM363.699 30.479c0 0 0-96.196 0-96.196s27.731 0 27.731 0c0 0 0 36.62 0 36.62s4.497 0 4.497 0c8.679 0 12.595-2.454 15.39-14.266 3.090-11.964 5.715-19.44 7.285-22.355 0 0 28.631 0 28.631 0-2.011 3.733-5.421 17.927-8.706 27.918-2.582 8.413-6.276 14.632-13.313 17.301 0 0 0 0.665 0 0.665 8.231 2.73 18.016 11.435 18.016 23.624 0 9.48-3.755 16.547-10.448 21.228-7.867 5.461-19.298 7.536-35.287 7.536-13.933 0-25.848-0.881-33.791-2.075 0 0 0 0 0 0zM391.429-10.477c0 0 0 23.211 0 23.211 1.415 0.286 4.209 0.534 9.488 0.534 9.301-0.093 14.414-4.172 14.414-11.558 0-7.227-6.051-12.188-16.633-12.188 0 0-7.27 0-7.27 0s0 0 0 0zM525.987-43.080c0 0 6.672-22.639 6.672-22.639s30.205 0 30.205 0c0 0-31.131 97.579-31.131 97.579s-37.17 0-37.17 0c0 0-31.676-97.579-31.676-97.579s30.296 0 30.296 0c0 0 5.876 22.639 5.876 22.639s26.928 0 26.928 0zM522.138-23.76c0 0-19.346 0-19.346 0s4.455 17.394 4.455 17.394c1.554 5.47 3.114 13.569 4.65 19.388 0 0 0.331 0 0.331 0 1.531-5.819 3.53-13.765 5.123-19.285 0 0 4.785-17.498 4.785-17.498s0 0 0 0zM746.43 33.997c-33.813 0-56.254-20.259-56.254-51.757 0-31.69 23.713-50.506 54.576-50.506 28.215 0 55.559 16.393 55.559 52.266 0 29.43-21.562 49.997-53.88 49.997zM745.575 12.419c14.864 0 20.887-14.788 20.887-29.43 0-17.589-8.159-29.433-20.887-29.433-14.013 0-21.557 12.63-21.557 29.433 0 14.418 5.824 29.43 21.557 29.43zM813.732 1.047c0 0 0-66.766 0-66.766s33.359 0 33.359 0c0 0 0 56.499 0 56.499 0 2.853 0.425 5.654 1.32 7.7 2.196 5.552 7.683 11.393 16.879 11.393 12.112 0 16.963-8.57 16.963-21.263 0 0 0-54.331 0-54.331s33.354 0 33.354 0c0 0 0 58.136 0 58.136 0 28.928-16.489 41.581-38.459 41.581-17.763 0-28.738-9.417-33.123-15.607 0 0-0.659 0-0.659 0s-1.539 13.438-1.539 13.438c0 0-29.005 0-29.005 0 0.468-8.631 0.905-18.56 0.905-30.781 0 0 0 0 0 0zM987.148-43.080c0 0 6.658-22.639 6.658-22.639s30.194 0 30.194 0c0 0-31.137 97.579-31.137 97.579s-37.156 0-37.156 0c0 0-30.391-97.579-30.391-97.579s29.002 0 29.002 0c0 0 5.875 22.639 5.875 22.639s26.954 0 26.954 0zM983.254-23.76c0 0-19.365 0-19.365 0s4.538 17.394 4.538 17.394c1.501 5.47 3.056 13.569 4.62 19.388 0 0 0.297 0 0.297 0 1.503-5.819 3.592-13.765 5.13-19.285 0 0 4.78-17.498 4.78-17.498s0 0 0 0zM678.445-61.761c0 0 0 59.015 0 59.015 0 17.528 0.484 27.328 0.876 34.771 0 0-29.839 0-29.839 0s-1.101-13.857-1.101-13.857c0 0-0.483 0-0.483 0-5.649 9.552-15.156 16.494-30.293 16.494-27.133 0-50.192-23.969-50.192-61.621 0-33.829 19.447-50.886 46.818-50.886 12.624 0 23.274 5.563 29.855 15.391 0 0 0.436 0 0.436 0s0-7.731 0-7.731c0-21.546-12.424-37.335-28.723-37.335-12.878 0-25.082 4.519-32.119 8.823 0 0-6.76-27.55-6.76-27.55 9.94-6.030 25.328-9.142 39.826-9.142 16.232 0 33.004 3.108 44.96 14.421 12.419 11.75 16.74 36.681 16.74 59.208 0 0 0 0 0 0zM644.084-15.693c0 0 0-17.241 0-17.241 0-10.933-11.937-17.998-19.207-17.998-14.466 0-22.631 9.798-22.631 24.717 0 25.728 8.783 33.297 22.631 33.297 7.27 0 19.207-3.867 19.207-22.777zM228.561 80.698c0 0 7.067 0 7.067 0s5.56 14.707 5.56 14.707c0 0 19.978 0 19.978 0s5.339-14.707 5.339-14.707c0 0 7.533 0 7.533 0s-18.483 48.842-18.483 48.842c0 0-7.787 0-7.787 0s-19.207-48.842-19.207-48.842zM243.196 100.712c0 0 8.166 21.638 8.166 21.638s7.806-21.638 7.806-21.638c0 0-15.971 0-15.971 0zM312.734 95.282c0 0 0 34.258 0 34.258s-6.816 0-6.816 0c0 0 0-32.571 0-32.571 0-4.112-0.345-6.872-1.065-8.357-1.122-2.382-3.55-3.638-7.224-3.638-2.609 0-4.538 0.663-5.828 2.014-1.21 1.351-1.821 3.355-1.821 6.025 0 0 0 3.485 0 3.485s-6.489 0-6.489 0c0 0 0-3.485 0-3.485 0-5.114 1.317-8.632 4.038-10.709 2.702-1.912 5.969-2.922 9.812-2.922 6.586 0 11.107 2.104 13.463 6.286 1.28 2.292 1.928 5.461 1.928 9.614 0 0 0 0 0 0zM331.091 129.54c0 0 0-27.446 0-27.446 0-5.974 0.823-10.616 2.511-13.817 3.096-5.974 8.957-8.895 17.596-8.895 8.616 0 14.432 2.922 17.552 8.895 1.699 3.2 2.532 7.843 2.532 13.817 0 0 0 27.446 0 27.446s-6.946 0-6.946 0c0 0 0-30.178 0-30.178 0-3.517-0.575-6.306-1.741-8.383-2.104-3.837-6.111-5.749-11.981-5.749-4.903 0-8.407 1.758-10.46 5.309-1.41 2.32-2.073 5.307-2.073 8.823 0 0 0 30.178 0 30.178s-6.992 0-6.992 0zM389.278 129.54c0 0 0-48.842 0-48.842s6.607 0 6.607 0c0 0 0 39.514 0 39.514s25.795-39.514 25.795-39.514c0 0 7.708 0 7.708 0s0 48.842 0 48.842c0 0-6.549 0-6.549 0s0-39.442 0-39.442c0 0-25.441 39.442-25.441 39.442s-8.118 0-8.118 0c0 0-0.002 0-0.002 0zM443.772 129.54c0 0 0-5.84 0-5.84s17.122 0 17.122 0c0 0 0-43.002 0-43.002s6.986 0 6.986 0c0 0 0 43.002 0 43.002s17.151 0 17.151 0c0 0 0 5.84 0 5.84s-41.261 0-41.261 0zM489.267 80.698c0 0 7.064 0 7.064 0s5.531 14.707 5.531 14.707c0 0 19.962 0 19.962 0s5.366-14.707 5.366-14.707c0 0 7.501 0 7.501 0s-18.438 48.842-18.438 48.842c0 0-7.811 0-7.811 0s-19.173-48.842-19.173-48.842zM503.885 100.712c0 0 8.159 21.638 8.159 21.638s7.862-21.638 7.862-21.638c0 0-16.021 0-16.021 0zM548.206 129.54c0 0 0-48.842 0-48.842s6.538 0 6.538 0c0 0 0 28.808 0 28.808 0 1.165 0 2.986-0.133 5.43-0.062 2.454-0.093 4.276-0.093 5.472 0 0 0 1.501 0 1.501s14.669-41.211 14.669-41.211c0 0 6.898 0 6.898 0s14.525 41.211 14.525 41.211c0-2.636-0.030-5.152-0.109-7.443-0.030-2.294-0.030-3.987-0.030-4.96 0 0 0-28.808 0-28.808s6.543 0 6.543 0c0 0 0 48.842 0 48.842s-9.783 0-9.783 0c0 0-14.525-41.263-14.525-41.263s-14.637 41.263-14.637 41.263c0 0-9.863 0-9.863 0s0 0 0 0zM615.562 80.698c0 0 37.535 0 37.535 0s0 5.851 0 5.851c0 0-30.813 0-30.813 0s0 16.545 0 16.545c0 0 28.060 0 28.060 0s0 5.657 0 5.657c0 0-28.060 0-28.060 0s0 14.796 0 14.796c0 0 30.325 0 30.325 0s0 5.993 0 5.993c0 0-37.047 0-37.047 0s0-48.842 0-48.842zM669.695 80.698c0 0 6.564 0 6.564 0s0 39.514 0 39.514c0 0 25.824-39.514 25.824-39.514s7.707 0 7.707 0c0 0 0 48.842 0 48.842s-6.545 0-6.545 0c0 0 0-39.442 0-39.442s-25.43 39.442-25.43 39.442c0 0-8.119 0-8.119 0s0-48.842 0-48.842zM724.194 129.54c0 0 0-5.84 0-5.84s17.146 0 17.146 0c0 0 0-43.002 0-43.002s6.941 0 6.941 0c0 0 0 43.002 0 43.002s17.151 0 17.151 0c0 0 0 5.84 0 5.84s-41.24 0-41.24 0zM813.959 129.54c0 0 0-48.842 0-48.842s20.286 0 20.286 0c8.626 0 14.713 3.712 18.232 11.067 1.981 4.203 3.020 8.946 3.020 14.131 0 6.688-1.698 12.178-5.093 16.577-3.829 4.682-9.2 7.066-16.079 7.066 0 0-20.369 0-20.369 0s0 0 0 0zM832.942 86.356c0 0-11.997 0-11.997 0s0 37.498 0 37.498c0 0 11.937 0 11.937 0 5.464 0 9.419-1.718 11.884-5.023 2.417-3.291 3.646-8.036 3.646-14.101 0-1.607-0.158-3.2-0.488-5.091-0.598-3.111-1.584-5.616-2.938-7.568-1.616-2.507-3.781-4.172-6.396-4.96-1.439-0.502-3.344-0.756-5.649-0.756 0 0 0 0 0 0zM877.981 80.698c0 0 37.52 0 37.52 0s0 5.851 0 5.851c0 0-30.798 0-30.798 0s0 16.545 0 16.545c0 0 28.004 0 28.004 0s0 5.657 0 5.657c0 0-28.004 0-28.004 0s0 14.796 0 14.796c0 0 30.277 0 30.277 0s0 5.993 0 5.993c0 0-36.999 0-36.999 0s0-48.842 0-48.842zM371.581 341.456c-2.259 0-4.46-0.237-6.586-0.679-1.955 10.439-2.985 21.448-2.985 33.006 0 11.545 1.029 22.543 2.975 32.966 2.129-0.446 4.332-0.683 6.596-0.683 17.872 0 32.32-14.45 32.32-32.314 0-17.815-14.448-32.298-32.32-32.298zM484.149 244.409c0-4.992-1.164-9.705-3.186-13.927-13.572 2.185-26.198 5.788-37.746 10.72 0.101 1.053 0.163 2.125 0.163 3.207 0 17.834-14.498 32.283-32.299 32.283-17.848 0-32.339 14.542-32.339 32.317 0 17.935 14.491 32.446 32.339 32.446 17.802 0 32.299 14.482 32.299 32.298 0 17.864-14.498 32.314-32.299 32.314-17.848 0-32.339 14.512-32.339 32.325 0 17.927 14.491 32.314 32.339 32.314 17.802 0 32.299 14.512 32.299 32.418 0 1.077-0.072 2.139-0.205 3.189 11.566 4.94 24.201 8.546 37.783 10.731 2.027-4.22 3.191-8.928 3.191-13.92 0-17.907-14.448-32.418-32.351-32.418-17.839 0-32.335-14.387-32.335-32.314 0-17.813 14.498-32.325 32.335-32.325 17.903 0 32.351-14.45 32.351-32.314 0-17.815-14.448-32.298-32.351-32.298-17.839 0-32.335-14.512-32.335-32.446 0-17.775 14.498-32.317 32.335-32.317 17.903 0 32.351-14.45 32.351-32.283zM564.366 244.409c0-3.471-0.561-6.807-1.575-9.94-13.428-3.706-27.991-5.865-43.566-6.334 2.799 4.785 4.434 10.335 4.434 16.274 0 17.834-14.499 32.283-32.367 32.283-17.888 0-32.335 14.542-32.335 32.317 0 17.935 14.446 32.446 32.335 32.446 17.867 0 32.367 14.482 32.367 32.298 0 17.864-14.499 32.314-32.367 32.314-17.888 0-32.335 14.512-32.335 32.325 0 17.927 14.446 32.314 32.335 32.314 17.867 0 32.367 14.512 32.367 32.418 0 5.939-1.635 11.484-4.439 16.264 15.572-0.468 30.133-2.62 43.571-6.324 1.009-3.133 1.575-6.469 1.575-9.942 0-17.907-14.462-32.418-32.32-32.418-17.826 0-32.32-14.387-32.32-32.314 0-17.813 14.493-32.325 32.32-32.325 17.858 0 32.32-14.45 32.32-32.314 0-17.815-14.462-32.298-32.32-32.298-17.826 0-32.32-14.512-32.32-32.446 0-17.775 14.493-32.317 32.32-32.317 17.858 0 32.32-14.45 32.32-32.283zM660.749 342.748c-4.1-23.563-12.99-44.159-25.991-61.171-9.19 5.715-15.332 15.877-15.332 27.433 0 17.935 14.482 32.446 32.32 32.446 3.133 0 6.142 0.465 9.003 1.292zM634.536 466.286c13.128-17.073 22.1-37.784 26.222-61.509-2.86 0.823-5.875 1.288-9.013 1.288-17.839 0-35.88 14.512-35.88 32.325 0 11.953 8.036 22.305 18.671 27.895zM612.294 276.694c5.506 0 10.682-1.381 15.219-3.803-7.224-7.865-15.481-14.776-24.639-20.697-3.493 14.066-16.195 24.5-31.331 24.5-17.867 0-32.335 14.542-32.335 32.317 0 17.935 14.467 32.446 32.335 32.446 17.826 0 32.32 14.482 32.32 32.298 0 17.864-14.493 32.314-32.32 32.314-17.867 0-32.335 14.512-32.335 32.325 0 17.927 14.467 32.314 32.335 32.314 15.151 0 27.865 10.503 31.348 24.649 9.193-5.939 17.471-12.88 24.719-20.783-4.558-2.463-9.769-3.867-15.316-3.867-17.874 0-32.32-14.387-32.32-32.314 0-17.813 14.446-32.325 32.32-32.325 17.863 0 32.335-14.45 32.335-32.314 0-17.815-14.472-32.298-32.335-32.298-17.874 0-32.32-14.512-32.32-32.446 0-17.775 14.446-32.317 32.32-32.317z" />
<glyph unicode="&#x44;" glyph-name="logoAJtgn_vertical_negatiu" data-tags="logoAJtgn_vertical_negatiu" d="M64.833 80.709c0 0 0-146.332 0-146.332s48.644 0 48.644 0c0 0 0 146.332 0 146.332s65.711 0 65.711 0c0 0 0 48.677 0 48.677s-179.189 0-179.189 0c0 0 0-48.677 0-48.677s64.832 0 64.832 0c0 0 0 0 0 0zM206.924-43.14c0 0 6.688-22.638 6.688-22.638s30.215 0 30.215 0c0 0-31.186 97.607-31.186 97.607s-37.13 0-37.13 0c0 0-30.405-97.607-30.405-97.607s29.021 0 29.021 0c0 0 5.871 22.638 5.871 22.638s26.926 0 26.926 0zM203.087-23.852c0 0-19.405 0-19.405 0s4.549 17.466 4.549 17.466c1.487 5.431 3.052 13.528 4.656 19.348 0 0 0.272 0 0.272 0 1.549-5.818 3.549-13.765 5.094-19.316 0 0 4.837-17.496 4.837-17.496s0 0 0 0zM260.346 30.386c0 0 0-96.165 0-96.165s27.791 0 27.791 0c0 0 0 36.62 0 36.62s4.459 0 4.459 0c8.701 0 12.506-2.454 15.355-14.267 3.11-11.963 5.686-19.469 7.291-22.354 0 0 28.615 0 28.615 0-2.018 3.701-5.372 17.926-8.674 27.887-2.603 8.445-6.338 14.662-13.315 17.332 0 0 0 0.664 0 0.664 8.177 2.732 18.002 11.403 18.002 23.654 0 9.481-3.745 16.487-10.433 21.23-7.882 5.399-19.314 7.505-35.268 7.505-13.977 0-25.943-0.879-33.825-2.106 0 0 0 0 0 0zM288.139 12.674c1.316 0.286 4.181 0.563 9.46 0.563 9.265-0.123 14.343-4.234 14.343-11.585 0-7.232-6.018-12.159-16.547-12.159 0 0-7.257 0-7.257 0s0 23.182 0 23.182zM363.677-65.779c0 0 27.735 0 27.735 0s0 36.62 0 36.62c0 0 4.454 0 4.454 0 8.706 0 12.661-2.454 15.394-14.267 3.139-11.963 5.716-19.469 7.32-22.354 0 0 28.615 0 28.615 0-1.986 3.701-5.372 17.926-8.674 27.887-2.64 8.445-6.307 14.662-13.314 17.332 0 0 0 0.664 0 0.664 8.231 2.732 17.995 11.403 17.995 23.654 0 9.481-3.74 16.487-10.428 21.23-7.855 5.399-19.317 7.505-35.333 7.505-13.916 0-25.815-0.879-33.765-2.106 0 0 0-96.165 0-96.165zM391.413 12.674c1.378 0.286 4.243 0.563 9.486 0.563 9.328-0.123 14.38-4.234 14.38-11.585 0-7.232-6.023-12.159-16.606-12.159 0 0-7.259 0-7.259 0s0 23.182 0 23.182zM525.997-43.14c0 0 6.659-22.638 6.659-22.638s30.214 0 30.214 0c0 0-31.155 97.607-31.155 97.607s-37.191 0-37.191 0c0 0-31.693-97.607-31.693-97.607s30.306 0 30.306 0c0 0 5.881 22.638 5.881 22.638s26.978 0 26.978 0zM522.097-23.852c0 0-19.346 0-19.346 0s4.488 17.466 4.488 17.466c1.543 5.431 3.081 13.528 4.625 19.348 0 0 0.374 0 0.374 0 1.473-5.818 3.519-13.765 5.052-19.316 0 0 4.805-17.496 4.805-17.496s0 0 0 0zM746.415 33.905c-33.827 0-56.253-20.23-56.253-51.694 0-31.729 23.685-50.537 54.555-50.537 28.234 0 55.568 16.391 55.568 52.265 0 29.389-21.546 49.964-53.87 49.964zM745.536 12.359c14.863 0 20.923-14.818 20.923-29.461 0-17.559-8.201-29.401-20.923-29.401-14.041 0-21.546 12.629-21.546 29.401 0 14.417 5.807 29.461 21.546 29.461zM813.723 0.987c0 0 0-66.765 0-66.765s33.327 0 33.327 0c0 0 0 56.468 0 56.468 0 2.924 0.444 5.716 1.322 7.729 2.197 5.553 7.687 11.435 16.89 11.435 12.132 0 16.967-8.643 16.967-21.302 0 0 0-54.329 0-54.329s33.328 0 33.328 0c0 0 0 58.134 0 58.134 0 28.96-16.436 41.548-38.451 41.548-17.744 0-28.733-9.358-33.101-15.574 0 0-0.664 0-0.664 0s-1.54 13.437-1.54 13.437c0 0-29.019 0-29.019 0 0.502-8.661 0.942-18.529 0.942-30.78 0 0 0 0 0 0zM987.128-43.14c0 0 6.626-22.638 6.626-22.638s30.246 0 30.246 0c0 0-31.157 97.607-31.157 97.607s-37.186 0-37.186 0c0 0-30.338-97.607-30.338-97.607s28.96 0 28.96 0c0 0 5.869 22.638 5.869 22.638s26.979 0 26.979 0zM983.229-23.852c0 0-19.333 0-19.333 0s4.486 17.466 4.486 17.466c1.533 5.431 3.076 13.528 4.616 19.348 0 0 0.315 0 0.315 0 1.471-5.818 3.61-13.765 5.155-19.316 0 0 4.765-17.496 4.765-17.496s0 0 0 0zM678.422-61.863c0 0 0 59.025 0 59.025 0 17.557 0.504 27.384 0.881 34.767 0 0-29.839 0-29.839 0s-1.105-13.824-1.105-13.824c0 0-0.499 0-0.499 0-5.654 9.552-15.136 16.524-30.311 16.524-27.097 0-50.187-23.968-50.187-61.654 0-33.827 19.466-50.884 46.837-50.884 12.615 0 23.3 5.594 29.9 15.391 0 0 0.436 0 0.436 0s0-7.729 0-7.729c0-21.549-12.476-37.338-28.743-37.338-12.908 0-25.126 4.493-32.134 8.826 0 0-6.749-27.515-6.749-27.515 9.918-6.034 25.342-9.173 39.82-9.173 16.211 0 32.735 3.396 44.944 14.415 12.415 11.752 16.751 36.681 16.751 59.167 0 0 0 0 0 0zM644.098-15.723c0 0 0-17.271 0-17.271 0-10.931-11.977-17.998-19.257-17.998-14.419 0-22.59 9.836-22.59 24.749 0 25.727 8.762 33.293 22.59 33.293 7.281 0 19.257-3.895 19.257-22.773zM228.532 80.637c0 0 7.064 0 7.064 0s5.567 14.706 5.567 14.706c0 0 20.002 0 20.002 0s5.305-14.706 5.305-14.706c0 0 7.537 0 7.537 0s-18.438 48.883-18.438 48.883c0 0-7.78 0-7.78 0s-19.255-48.883-19.255-48.883zM243.165 100.65c0 0 8.17 21.607 8.17 21.607s7.783-21.607 7.783-21.607c0 0-15.953 0-15.953 0zM312.699 95.219c0 0 0 34.3 0 34.3s-6.774 0-6.774 0c0 0 0-32.583 0-32.583 0-4.109-0.382-6.901-1.106-8.416-1.095-2.35-3.519-3.609-7.187-3.609-2.64 0-4.594 0.664-5.809 2.045-1.258 1.319-1.861 3.324-1.861 6.034 0 0 0 3.444 0 3.444s-6.463 0-6.463 0c0 0 0-3.444 0-3.444 0-5.156 1.317-8.674 4.048-10.751 2.702-1.941 5.973-2.924 9.764-2.924 6.626 0 11.118 2.077 13.48 6.32 1.316 2.23 1.909 5.431 1.909 9.582 0 0 0 0 0 0zM331.045 129.519c0 0 0-27.489 0-27.489 0-5.973 0.819-10.584 2.517-13.816 3.143-5.975 8.982-8.898 17.619-8.898 8.602 0 14.411 2.924 17.591 8.898 1.687 3.23 2.473 7.842 2.473 13.816 0 0 0 27.489 0 27.489s-6.904 0-6.904 0c0 0 0-30.22 0-30.22 0-3.517-0.632-6.307-1.759-8.413-2.106-3.836-6.092-5.687-11.974-5.687-4.928 0-8.447 1.759-10.453 5.247-1.45 2.382-2.104 5.337-2.104 8.854 0 0 0 30.22 0 30.22s-7.008 0-7.008 0zM389.272 129.519c0 0 0-48.883 0-48.883s6.595 0 6.595 0c0 0 0 39.545 0 39.545s25.761-39.545 25.761-39.545c0 0 7.753 0 7.753 0s0 48.883 0 48.883c0 0-6.523 0-6.523 0s0-39.484 0-39.484c0 0-25.446 39.484-25.446 39.484s-8.138 0-8.138 0c0 0 0 0 0 0zM443.739 129.519c0 0 0-5.881 0-5.881s17.117 0 17.117 0c0 0 0-43.001 0-43.001s7.008 0 7.008 0c0 0 0 43.001 0 43.001s17.178 0 17.178 0c0 0 0 5.881 0 5.881s-41.302 0-41.302 0zM489.244 80.637c0 0 7.104 0 7.104 0s5.526 14.706 5.526 14.706c0 0 19.911 0 19.911 0s5.377-14.706 5.377-14.706c0 0 7.505 0 7.505 0s-18.408 48.883-18.408 48.883c0 0-7.85 0-7.85 0s-19.164-48.883-19.164-48.883zM503.854 100.65c0 0 8.165 21.607 8.165 21.607s7.85-21.607 7.85-21.607c0 0-16.016 0-16.016 0zM548.165 129.519c0 0 0-48.883 0-48.883s6.563 0 6.563 0c0 0 0 28.807 0 28.807 0 1.124 0 3.017-0.153 5.431-0.062 2.454-0.062 4.274-0.062 5.471 0 0 0 1.471 0 1.471s14.668-41.18 14.668-41.18c0 0 6.846 0 6.846 0s14.575 41.18 14.575 41.18c0-2.608-0.030-5.155-0.091-7.382-0.062-2.32-0.062-4.018-0.062-4.99 0 0 0-28.807 0-28.807s6.525 0 6.525 0c0 0 0 48.883 0 48.883s-9.766 0-9.766 0c0 0-14.538-41.303-14.538-41.303s-14.636 41.303-14.636 41.303c0 0-9.87 0-9.87 0s0.002 0 0.002 0zM615.576 129.519c0 0 0-48.883 0-48.883s37.5 0 37.5 0c0 0 0 5.881 0 5.881s-30.812 0-30.812 0c0 0 0 16.484 0 16.484s28.081 0 28.081 0c0 0 0 5.655 0 5.655s-28.081 0-28.081 0c0 0 0 14.826 0 14.826s30.338 0 30.338 0c0 0 0 6.036 0 6.036s-37.026 0-37.026 0c0 0 0 0 0 0zM669.693 129.519c0 0 0-48.883 0-48.883s6.535 0 6.535 0c0 0 0 39.545 0 39.545s25.841-39.545 25.841-39.545c0 0 7.727 0 7.727 0s0 48.883 0 48.883c0 0-6.595 0-6.595 0s0-39.484 0-39.484c0 0-25.379 39.484-25.379 39.484s-8.129 0-8.129 0c0 0 0 0 0 0zM724.153 129.519c0 0 0-5.881 0-5.881s17.178 0 17.178 0c0 0 0-43.001 0-43.001s6.904 0 6.904 0c0 0 0 43.001 0 43.001s17.146 0 17.146 0c0 0 0 5.881 0 5.881s-41.228 0-41.228 0zM813.95 129.519c0 0 0-48.883 0-48.883s20.29 0 20.29 0c8.597 0 14.692 3.743 18.213 11.094 2.010 4.144 3.014 8.92 3.014 14.073 0 6.688-1.728 12.238-5.123 16.638-3.823 4.651-9.133 7.078-16.041 7.078 0 0-20.352 0-20.352 0s0 0 0 0zM820.916 86.292c0 0 0 37.496 0 37.496s11.94 0 11.94 0c5.433 0 9.39-1.756 11.905-5.019 2.413-3.295 3.612-8.007 3.612-14.104 0-1.607-0.153-3.201-0.441-5.123-0.665-3.047-1.637-5.585-2.953-7.567-1.636-2.443-3.765-4.143-6.405-4.928-1.482-0.472-3.364-0.756-5.654-0.756 0 0-12.003 0-12.003 0zM877.953 129.519c0 0 0-48.883 0-48.883s37.5 0 37.5 0c0 0 0 5.881 0 5.881s-30.78 0-30.78 0c0 0 0 16.484 0 16.484s27.986 0 27.986 0c0 0 0 5.655 0 5.655s-27.986 0-27.986 0c0 0 0 14.826 0 14.826s30.278 0 30.278 0c0 0 0 6.036 0 6.036s-36.996 0-36.996 0c0 0 0 0 0 0zM443.358 244.344c0-0.881-0.436-1.575-0.499-2.424-26.161 11.31-46.826 29.398-60.651 53.052 5.243-10.748 16.056-18.313 28.837-18.313 17.835 0 32.315-14.479 32.315-32.315zM382.085 452.106c13.782 23.807 34.391 41.957 60.681 53.359 0.093-0.881 0.593-1.533 0.593-2.413 0-17.875-14.478-32.417-32.315-32.417-12.882 0-23.775-7.627-28.96-18.529zM378.751 308.943c0-4.141 0.879-8.101 2.362-11.843-7.198 12.946-12.85 27.141-15.862 42.998 2.13 0.441 4.080 1.26 6.314 1.26 17.872 0 32.315 14.479 32.315 32.324 0 17.864-14.442 32.283-32.315 32.283-2.234 0-4.183 0.879-6.314 1.319 3.011 15.92 8.664 30.113 15.923 43.060-1.544-3.743-2.424-7.729-2.424-12.027 0-17.813 14.481-32.353 32.292-32.353 17.835 0 32.315-14.419 32.315-32.283 0-17.845-14.478-32.324-32.315-32.324-17.811 0-32.292-14.482-32.292-32.417zM523.645 244.344c0-5.911-2.016-11.125-4.779-15.902-2.134-0.059-4.048-0.499-6.184-0.499-11.189 0-21.834 0.94-31.918 2.576 2.018 4.243 3.396 8.826 3.396 13.827 0 17.834-14.476 32.315-32.354 32.315-17.835 0-32.343 14.54-32.343 32.284 0 17.934 14.508 32.417 32.343 32.417 17.878 0 32.354 14.479 32.354 32.324 0 17.864-14.476 32.283-32.354 32.283-17.835 0-32.343 14.54-32.343 32.353 0 17.958 14.508 32.315 32.343 32.315 17.878 0 32.354 14.542 32.354 32.417 0 4.99-1.378 9.612-3.396 13.876 10.084 1.575 20.729 2.517 31.918 2.517 2.134 0 4.048-0.44 6.184-0.5 2.764-4.777 4.779-9.961 4.779-15.893 0-17.875-14.481-32.417-32.359-32.417-17.862 0-32.343-14.355-32.343-32.315 0-17.813 14.481-32.353 32.343-32.353 17.878 0 32.359-14.419 32.359-32.283 0-17.845-14.481-32.324-32.359-32.324-17.862 0-32.343-14.482-32.343-32.417 0-17.744 14.481-32.284 32.343-32.284 17.878 0 32.359-14.479 32.359-32.315zM634.545 282.315c-2.485-3.303-5.001-6.475-7.794-9.492-4.424 2.23-9.205 3.836-14.476 3.836-17.867 0-32.345 14.54-32.345 32.284 0 17.934 14.478 32.417 32.345 32.417 17.872 0 32.354 14.479 32.354 32.324 0 17.864-14.482 32.283-32.354 32.283-17.867 0-32.345 14.54-32.345 32.353 0 17.958 14.478 32.315 32.345 32.315 5.303 0 10.145 1.607 14.538 3.836 2.64-2.801 5.094-5.881 7.444-8.93-10.357-5.644-18.403-15.418-18.403-27.221 0-17.813 18.026-32.353 35.899-32.353 3.199 0 6.095-0.91 8.95-1.791 1.693-9.671 2.635-19.816 2.635-30.431 0-10.647-0.942-20.8-2.635-30.505-2.856-0.879-5.751-1.88-8.95-1.88-17.874 0-32.354-14.482-32.354-32.417 0-11.331 6.261-20.943 15.146-26.627zM602.283 251.911c-11.712-7.444-25.22-12.874-39.789-16.903 0.91 2.985 1.851 6.063 1.851 9.336 0 17.834-14.481 32.315-32.319 32.315-17.81 0-32.292 14.54-32.292 32.284 0 17.934 14.482 32.417 32.292 32.417 17.837 0 32.319 14.479 32.319 32.324 0 17.864-14.481 32.283-32.319 32.283-17.81 0-32.292 14.54-32.292 32.353 0 17.958 14.482 32.315 32.292 32.315 17.837 0 32.319 14.542 32.319 32.417 0 3.354-0.942 6.371-1.851 9.39 14.57-4.083 28.079-9.492 39.789-17.029-3.449-14.070-15.605-24.778-30.741-24.778-17.909 0-32.385-14.355-32.385-32.315 0-17.813 14.476-32.353 32.385-32.353 17.8 0 32.283-14.419 32.283-32.283 0-17.845-14.482-32.324-32.283-32.324-17.909 0-32.385-14.482-32.385-32.417 0-17.744 14.476-32.284 32.385-32.284 15.136 0 27.262-10.645 30.741-24.747z" />
<glyph unicode="&#x45;" glyph-name="logo_PatrimoniMundial" data-tags="logo_PatrimoniMundial" d="M511.995 591.101c221.219 0 400.583-179.371 400.583-400.59 0-201.473-151.375-368.639-344.97-396.831-18.16-4.261-30.981 8.794-30.981 30.22 0 2.466 0 14.318 0 31.016 0 20.802 0 49.111 0 76.475 0 45.74 0 88.662 0 88.662s-0.813-0.649-0.813-0.649c0 0 170.077 170.020 170.077 170.020s-191.551 191.543-191.551 191.543c0 0-191.536-191.543-191.536-191.543s170.259-170.286 170.259-170.286c0 0 0.117-0.5 0.117-0.5s0-45.3 0-92.454c0-25.479 0-46.903 0-66.574 0-17.516 0-34.569 0-37.122 0-13.461-9.050-29.484-28.808-29.659-3.356-0.030-7.051 0.408-11.056 1.41-193.411 28.391-341.917 194.974-341.917 396.269 0 221.219 179.373 400.59 400.592 400.59 0 0 0 0 0 0zM597.594-135.738c144.454 35.857 256.609 163.72 256.609 328.394 0 186.892-151.492 338.419-338.384 338.419-186.954 0-338.454-151.527-338.454-338.419 0-158.051 108.406-290.805 254.91-328.014 0 0 0.119 122.366 0.119 122.366s-200.882 200.889-200.882 200.889c0 0 280.775 280.8 280.775 280.8s280.827-280.8 280.827-280.8c0 0-196.762-196.769-196.762-196.769s1.052-0.532 1.052-0.532c0 0 0.186-126.128 0.186-126.128s0-0.189 0-0.204c0 0 0 0 0 0zM68.112 420.536c-3.558-6.932-1.385-14.783 5.786-18.49 7.29-3.724 14.967-0.9 18.53 6.002 3.543 6.969 1.4 14.898-5.885 18.634-7.175 3.707-14.903 0.791-18.428-6.144 0 0 0 0 0 0zM10.647 299.844c0 0 53.636-35.742 53.636-35.742s2.061 8.080 2.061 8.080c0 0-24.365 16.23-24.365 16.23-3.327 2.233-7.852 5.323-12.21 7.705 0 0 0.035 0.169 0.035 0.169 5.060 0.065 10.293 0.383 14.371 0.714 0 0 29.169 2.529 29.169 2.529s1.902 7.551 1.902 7.551c0 0-24.368 16.133-24.368 16.133-3.58 2.382-7.819 5.119-12.227 7.618 0 0 0.037 0.181 0.037 0.181 5.055-0.032 10.223 0.465 14.4 0.88 0 0 29.191 2.526 29.191 2.526s2.255 8.819 2.255 8.819c0 0-64.195-5.505-64.195-5.505s-0.793-2.993-0.793-2.993c0 0 28.274-18.779 28.274-18.779 4.003-2.675 8.496-5.554 14.318-9 0 0-0.055-0.177-0.055-0.177-6.765-0.239-11.991-0.649-16.877-1.037 0 0-33.833-2.879-33.833-2.879s-0.728-3.021-0.728-3.021c0 0 0 0 0 0zM1.065 236.111c-1.412-15.902 8.901-32.652 28.306-34.36 19.162-1.671 32.356 13.003 33.733 28.898 1.415 15.937-9.015 32.684-28.179 34.365-19.375 1.73-32.463-12.968-33.86-28.903 0 0 0 0 0 0zM55.235 231.352c-0.915-10.845-10.293-21.755-25.076-20.427-14.786 1.295-22.192 13.637-21.252 24.514 0.977 11.049 10.44 21.722 25.226 20.395 14.756-1.283 22.103-13.461 21.106-24.485 0 0 0 0 0 0zM7.024 106.364c0 0 1.41-10.522 1.41-10.522s24.721 24.015 24.721 24.015c3.085-5.457 8.762-9.43 16.673-8.374 11.255 1.494 15.368 11.73 14.224 20.109 0 0-2.529 18.811-2.529 18.811s-59.344-7.998-59.344-7.998c0 0 1.198-8.958 1.198-8.958s26.051 3.523 26.051 3.523c0 0 1.144-8.384 1.144-8.384s-23.547-22.22-23.547-22.22c0 0 0 0 0 0zM56.232 132.146c0.704-5.321-1.494-10.614-7.645-11.464-6.258-0.825-9.701 3.709-10.395 9.023 0 0-1.121 8.294-1.121 8.294s18.048 2.441 18.048 2.441c0 0 1.111-8.294 1.111-8.294s0 0 0 0zM15.023 68.391c4.172-16.198 18.346-28.781 37.090-24.010 18.791 4.818 25.163 22.687 21.021 38.85 0 0-4.56 17.879-4.56 17.879s-58.111-14.87-58.111-14.87c0 0 4.56-17.846 4.56-17.846s0 0 0 0zM65.255 82.881c3.386-13.11-0.671-25.695-15.425-29.457-14.786-3.792-24.378 5.291-27.722 18.396 0 0-1.947 7.563-1.947 7.563s43.191 11.049 43.191 11.049c0 0 1.904-7.553 1.904-7.553s0 0 0 0zM112.347-130.972c0 0 6.352-8.52 6.352-8.52s9.967 32.955 9.967 32.955c5.373-3.23 12.257-4.003 18.662 0.798 9.080 6.755 7.73 17.72 2.673 24.48 0 0-11.322 15.203-11.322 15.203s-48.022-35.775-48.022-35.775c0 0 5.375-7.235 5.375-7.235s21.073 15.733 21.073 15.733c0 0 5.060-6.802 5.060-6.802s-9.818-30.835-9.818-30.835c0 0 0 0 0 0zM142.886-84.551c3.207-4.324 3.826-10.027-1.144-13.724-5.062-3.772-10.268-1.477-13.461 2.817 0 0-5.005 6.703-5.005 6.703s14.619 10.88 14.619 10.88c0 0 4.99-6.673 4.99-6.673s0 0 0 0zM208.702-224.139c0 0 7.18-5.713 7.18-5.713s17.948 63.496 17.948 63.496c0 0-2.551 2.054-2.551 2.054s-57.94-31.635-57.94-31.635c0 0 6.966-5.567 6.966-5.567s14.756 8.103 14.756 8.103c0 0 18.227-14.552 18.227-14.552s-4.585-16.186-4.585-16.186c0 0 0 0 0 0zM219.907-185.207c0 0-4.527-15.166-4.527-15.166s-13.383 10.706-13.383 10.706c0 0 13.764 7.757 13.764 7.757 1.904 1.037 4.495 2.588 6.576 4.155 0 0 0.152-0.124 0.152-0.124-0.997-2.437-2.029-5.231-2.581-7.327 0 0 0 0 0 0zM250.175-252.863c7.62-4.649 14.788-6.852 22.053-5.907 0 0 12.757 20.748 12.757 20.748s-19.174 11.753-19.174 11.753c0 0-3.844-6.255-3.844-6.255s11.81-7.235 11.81-7.235c0 0-6.554-10.664-6.554-10.664-3.441-0.211-7.732 1.082-12.461 3.995-10.407 6.407-16.66 19.164-8.548 32.391 8.165 13.374 22.806 13.461 32.828 7.317 5.345-3.25 9.351-8.053 11.665-12.777 0 0 5.584 5.87 5.584 5.87-2.317 4.674-6.966 9.873-14.045 14.199-12.732 7.787-33.005 7.998-43.885-9.729-10.589-17.312-1.977-35.267 11.81-43.706 0 0 0 0 0 0zM389.219-296.959c7.516-1.974 14.751 1.882 16.812 9.667 2.083 7.911-2.357 14.821-9.91 16.787-7.521 2.006-14.835-1.82-16.897-9.736-2.061-7.834 2.444-14.716 9.995-16.72 0 0 0 0 0 0zM482.605-289.172c8.431-0.614 18.396 4.125 19.221 15.462 0.85 11.345-8.292 17.518-16.728 18.137 0 0-17.995 1.333-17.995 1.333s-4.49-59.792-4.49-59.792c0 0 8.995-0.706 8.995-0.706s1.969 26.25 1.969 26.25c0 0 9.028-0.684 9.028-0.684s0 0 0 0zM482.923-263.153c5.35-0.395 10.092-3.68 9.647-9.888-0.465-6.248-5.641-8.712-10.999-8.282 0 0-7.404 0.535-7.404 0.535s1.35 18.194 1.35 18.194c0 0 7.407-0.557 7.407-0.557s0 0 0 0zM545.417-316.245c0 0 9.234 0.211 9.234 0.211s-26.832 60.224-26.832 60.224c0 0-3.272-0.050-3.272-0.050s-24.311-61.323-24.311-61.323c0 0 8.913 0.169 8.913 0.169s6.166 15.673 6.166 15.673c0 0 23.326 0.482 23.326 0.482s6.775-15.382 6.775-15.382c0 0 0 0 0 0zM529.142-279.172c0 0 6.213-14.527 6.213-14.527s-17.056-0.348-17.056-0.348c0 0 5.574 14.758 5.574 14.758 0.83 1.991 1.76 4.853 2.404 7.379 0 0 0.189 0 0.189 0 0.813-2.511 1.812-5.293 2.678-7.26 0 0 0 0 0 0zM648.704-299.46c0 0 10.368 2.444 10.368 2.444s-26.29 22.309-26.29 22.309c5.114 3.617 8.515 9.637 6.688 17.404-2.608 11.051-13.142 14.167-21.412 12.222 0 0-18.465-4.343-18.465-4.343s13.724-58.325 13.724-58.325c0 0 8.759 2.029 8.759 2.029s-5.982 25.626-5.982 25.626c0 0 8.215 1.912 8.215 1.912s24.395-21.28 24.395-21.28c0 0 0 0 0 0zM618.265-252.947c5.196 1.228 10.756-0.448 12.16-6.504 1.457-6.141-2.757-10.027-7.961-11.223 0 0-8.13-1.914-8.13-1.914s-4.184 17.724-4.184 17.724c0 0 8.118 1.917 8.118 1.917s0 0 0 0zM750.28-260.597c0 0 7.859 3.555 7.859 3.555s-29.576 52.383-29.576 52.383c0 0-5.134-2.32-5.134-2.32s-1.678-34.574-1.678-34.574c-0.234-5.577-0.505-12.076-0.286-17.043 0 0-0.204-0.062-0.204-0.062-3.697 3.349-9.015 7.64-13.165 10.935 0 0-27.257 21.451-27.257 21.451s-5.134-2.32-5.134-2.32c0 0 20.012-56.706 20.012-56.706s7.347 3.327 7.347 3.327c0 0-9.028 25.603-9.028 25.603-1.201 3.349-2.964 8.351-4.657 12.638 0 0 0.169 0.062 0.169 0.062 3.697-3.177 8.234-7.006 11.688-9.734 0 0 24.107-18.99 24.107-18.99s3.066 1.38 3.066 1.38c0 0 1.407 30.519 1.407 30.519 0.204 4.351 0.472 10.84 0.438 15.482 0 0 0.189 0.062 0.189 0.062 1.964-3.941 4.435-8.493 6.469-12.019 0 0 13.369-23.632 13.369-23.632s0 0 0 0zM798.742-232.612c13.287 8.821 19.925 27.307 9.184 43.497-10.671 16.029-30.372 17.145-43.656 8.334-13.294-8.849-19.885-27.461-9.231-43.48 10.793-16.205 30.409-17.195 43.703-8.351 0 0 0 0 0 0zM768.638-187.372c9.065 6.027 23.401 5.524 31.58-6.852 8.217-12.339 3.237-25.81-5.83-31.829-9.249-6.149-23.458-5.475-31.677 6.867-8.215 12.377-3.299 25.698 5.927 31.814 0 0 0 0 0 0zM896.305-148.925c0 0 1.909 1.939 1.909 1.939s-43.703 42.908-43.703 42.908c0 0-6.387-6.514-6.387-6.514s20.26-19.878 20.26-19.878c3.051-2.998 6.76-6.643 10.164-9.734 0 0-0.050-0.206-0.050-0.206-5.79 0.567-13.903 0.895-19.089 1.089 0 0-38.154 1.38-38.154 1.38s-4.406-4.522-4.406-4.522c0 0 42.796-41.98 42.796-41.98s6.382 6.531 6.382 6.531c0 0-21.461 21.049-21.461 21.049-3.237 3.143-6.845 6.698-10.875 10.373 0 0 0.067 0.204 0.067 0.204 6.367-0.462 14.313-0.965 20.957-1.198 0 0 41.59-1.442 41.59-1.442s0 0 0 0zM979.413-19.473c0 0 3.966 7.67 3.966 7.67s-55.655 22.811-55.655 22.811c0 0-2.588-5.002-2.588-5.002s20.091-28.207 20.091-28.207c3.25-4.54 7.081-9.761 10.281-13.558 0 0-0.102-0.216-0.102-0.216-4.977 0.42-11.805 0.45-17.128 0.45 0 0-34.656 0-34.656 0s-2.576-4.997-2.576-4.997c0 0 50.789-32.155 50.789-32.155s3.69 7.17 3.69 7.17c0 0-22.918 14.517-22.918 14.517-3.051 1.914-7.469 4.741-11.452 7.029 0 0 0.082 0.149 0.082 0.149 4.851-0.177 10.761-0.385 15.211-0.385 0 0 30.651-0.025 30.651-0.025s1.574 2.993 1.574 2.993c0 0-17.787 24.865-17.787 24.865-2.526 3.563-6.352 8.794-9.214 12.406 0 0 0.082 0.179 0.082 0.179 3.995-1.86 8.759-3.908 12.518-5.435 0 0 25.141-10.263 25.141-10.263s0 0 0 0zM1000.215 32.383c4.997 15.171-1.223 33.83-19.718 39.949-18.279 6.022-34.492-5.266-39.489-20.492-4.997-15.164 1.308-33.858 19.587-39.892 18.478-6.089 34.609 5.234 39.623 20.437 0 0 0 0 0 0zM948.511 49.366c3.374 10.38 14.992 18.811 29.102 14.201 14.097-4.644 18.518-18.376 15.079-28.719-3.476-10.549-15.079-18.779-29.189-14.142-14.144 4.617-18.468 18.135-14.992 28.659 0 0 0 0 0 0zM1022.559 129.349c0 0 0.492 2.678 0.492 2.678s-60.431 10.315-60.431 10.315c0 0-1.537-8.99-1.537-8.99s28.003-4.771 28.003-4.771c4.234-0.728 9.331-1.611 13.923-2.163 0 0 0.050-0.211 0.050-0.211-5.069-2.879-11.897-7.235-16.317-9.992 0 0-32.1-20.693-32.1-20.693s-1.054-6.208-1.054-6.208c0 0 59.106-10.084 59.106-10.084s1.522 9.005 1.522 9.005c0 0-29.641 5.055-29.641 5.055-4.44 0.761-9.438 1.614-14.838 2.317 0 0-0.087 0.211-0.087 0.211 5.522 3.262 12.299 7.349 17.889 10.997 0 0 35.019 22.535 35.019 22.535s0 0 0 0zM1023.981 169.181c0.527 16.73-9.637 32.751-28.967 33.366-19.383 0.562-30.462-14.783-30.951-31.533 0 0-0.557-18.413-0.557-18.413s59.884-1.815 59.884-1.815c0 0 0.594 18.396 0.594 18.396s0 0 0 0zM971.7 169.181c0.41 13.553 7.792 24.482 23.005 24.052 15.285-0.47 21.924-11.847 21.568-25.395 0 0-0.291-7.799-0.291-7.799s-44.519 1.36-44.519 1.36c0 0 0.234 7.782 0.234 7.782s0 0 0 0zM1015.933 284.528c0 0-1.42 9.080-1.42 9.080s-56.244-34.417-56.244-34.417c0 0 0.527-3.257 0.527-3.257s63.949-16.081 63.949-16.081c0 0-1.34 8.814-1.34 8.814s-16.31 4.082-16.31 4.082c0 0-3.526 23.023-3.526 23.023s14.363 8.757 14.363 8.757c0 0 0 0 0 0zM981.292 263.532c0 0 13.602 8.088 13.602 8.088s2.588-16.899 2.588-16.899c0 0-15.415 3.64-15.415 3.64-2.049 0.507-5.012 1.129-7.64 1.382 0 0-0.015 0.181-0.015 0.181 2.402 1.146 5.050 2.501 6.879 3.608 0 0 0 0 0 0zM964.876 401.638c-3.287 7.086-10.838 10.136-18.155 6.763-7.407-3.466-9.878-11.258-6.561-18.319 3.319-7.083 10.91-10.223 18.314-6.753 7.287 3.374 9.709 11.28 6.402 18.309 0 0 0 0 0 0zM137.277 481.621c5.082 6.725 6.559 17.603-2.476 24.485-9.010 6.855-19.122 2.529-24.251-4.204 0 0-10.87-14.286-10.87-14.286s47.594-36.163 47.594-36.163c0 0 5.43 7.185 5.43 7.185s-20.897 15.832-20.897 15.832c0 0 5.472 7.148 5.472 7.148s0 0 0 0zM115.728 496.026c3.207 4.232 8.528 6.437 13.436 2.7 4.992-3.794 4.256-9.463 1.032-13.692 0 0-4.475-5.92-4.475-5.92s-14.487 10.994-14.487 10.994c0 0 4.495 5.917 4.495 5.917s0 0 0 0zM196.238 509.838c0 0 6.24 6.768 6.24 6.768s-61.972 22.302-61.972 22.302c0 0-2.178-2.409-2.178-2.409s27.371-59.874 27.371-59.874c0 0 6.027 6.554 6.027 6.554s-7.004 15.231-7.004 15.231c0 0 15.733 17.128 15.733 17.128s15.783-5.698 15.783-5.698c0 0 0 0 0 0zM158.323 523.721c0 0 14.729-5.557 14.729-5.557s-11.554-12.551-11.554-12.551c0 0-6.768 14.249-6.768 14.249-0.885 1.947-2.23 4.592-3.64 6.79 0 0 0.117 0.147 0.117 0.147 2.354-1.176 5.052-2.379 7.116-3.078 0 0 0 0 0 0zM266.343 567.066c0 0 8.612 6.183 8.612 6.183s-32.712 10.606-32.712 10.606c3.376 5.296 4.229 12.108-0.385 18.58-6.613 9.234-17.545 8.105-24.398 3.202 0 0-15.397-11.022-15.397-11.022s34.775-48.624 34.775-48.624c0 0 7.317 5.236 7.317 5.236s-15.256 21.337-15.256 21.337c0 0 6.845 4.878 6.845 4.878s30.598-10.38 30.598-10.38c0 0 0 0 0 0zM220.636 598.435c4.346 3.123 10.052 3.64 13.672-1.385 3.645-5.107 1.233-10.281-3.090-13.403 0 0-6.782-4.821-6.782-4.821s-10.581 14.766-10.581 14.766c0 0 6.782 4.846 6.782 4.846s0 0 0 0zM350.266 611.073c0 0 7.819 3.593 7.819 3.593s-29.8 52.144-29.8 52.144c0 0-5.092-2.352-5.092-2.352s-1.497-34.539-1.497-34.539c-0.206-5.552-0.47-12.024-0.236-16.984 0 0-0.147-0.062-0.147-0.062-3.697 3.319-9.082 7.576-13.254 10.813 0 0-27.311 21.285-27.311 21.285s-5.084-2.35-5.084-2.35c0 0 20.255-56.495 20.255-56.495s7.317 3.374 7.317 3.374c0 0-9.115 25.484-9.115 25.484-1.228 3.386-3.028 8.351-4.754 12.59 0 0 0.177 0.109 0.177 0.109 3.697-3.17 8.257-6.962 11.76-9.672 0 0 24.099-18.843 24.099-18.843s3.058 1.41 3.058 1.41c0 0 1.266 30.454 1.266 30.454 0.204 4.353 0.44 10.82 0.383 15.467 0 0 0.172 0.065 0.172 0.065 1.977-3.943 4.475-8.446 6.504-11.971 0 0 13.485-23.52 13.485-23.52s0 0 0 0zM393.54 623.479c15.32 4.289 27.364 19.756 22.16 38.418-5.139 18.528-23.485 25.628-38.805 21.369-15.305-4.259-27.331-19.843-22.187-38.333 5.206-18.692 23.517-25.713 38.833-21.454 0 0 0 0 0 0zM379.020 675.715c10.462 2.879 23.871-2.029 27.829-16.258 3.976-14.291-4.94-25.484-15.432-28.425-10.629-2.931-23.89 2.126-27.858 16.347-3.973 14.286 4.818 25.33 15.462 28.336 0 0 0 0 0 0zM481.255 639.414c0 0 2.668 0.351 2.668 0.351s-7.819 60.525-7.819 60.525c0 0-8.998-1.119-8.998-1.119s3.625-28.077 3.625-28.077c0.547-4.259 1.231-9.378 1.996-13.903 0 0-0.181-0.114-0.181-0.114-4.199 4.005-10.348 9.234-14.291 12.61 0 0-29.039 24.577-29.039 24.577s-6.223-0.825-6.223-0.825c0 0 7.665-59.23 7.665-59.23s9.003 1.151 9.003 1.151c0 0-3.826 29.716-3.826 29.716-0.617 4.475-1.233 9.465-2.148 14.84 0 0 0.184 0.097 0.184 0.097 4.729-4.259 10.609-9.557 15.686-13.816 0 0 31.697-26.779 31.697-26.779s0 0 0 0zM545.218 639.175c15.907-1.079 32.386 9.5 33.711 28.836 1.318 19.134-13.553 31.991-29.445 33.097-15.855 1.089-32.366-9.604-33.701-28.746-1.308-19.313 13.558-32.068 29.432-33.186 0 0 0 0 0 0zM548.943 693.263c10.857-0.766 21.857-9.875 20.855-24.634-1.032-14.748-13.214-22.369-24.020-21.603-11.027 0.766-21.837 9.965-20.837 24.718 1.037 14.731 12.993 22.249 24.005 21.519 0 0 0 0 0 0zM660.491 617.691c0 0 8.319-2.33 8.319-2.33s10.974 58.994 10.974 58.994c0 0-5.415 1.507-5.415 1.507s-23.416-25.342-23.416-25.342c-3.797-4.112-8.15-8.881-11.218-12.787 0 0-0.169 0.030-0.169 0.030-0.644 4.968-1.984 11.641-3.066 16.812 0 0-7.046 33.865-7.046 33.865s-5.405 1.529-5.405 1.529c0 0-21.091-56.177-21.091-56.177s7.777-2.148 7.777-2.148c0 0 9.52 25.342 9.52 25.342 1.238 3.349 3.083 8.262 4.525 12.638 0 0 0.169-0.065 0.169-0.065 0.798-4.789 1.798-10.609 2.715-14.952 0 0 6.196-29.954 6.196-29.954s3.237-0.915 3.237-0.915c0 0 20.701 22.431 20.701 22.431 2.934 3.167 7.317 7.986 10.233 11.516 0 0 0.169-0.050 0.169-0.050-1.002-4.261-2.034-9.351-2.765-13.326 0 0-4.948-26.625-4.948-26.625s0 0 0 0zM697.186 601.17c12.725-5.701 25.596-2.407 31.275 10.348 0 0 15.788 35.33 15.788 35.33s-8.063 3.59-8.063 3.59c0 0-15.365-34.477-15.365-34.477-3.642-8.113-10.793-11.705-20.26-7.466-9.52 4.227-11.486 11.904-7.879 20.012 0 0 15.38 34.472 15.38 34.472s-8.297 3.714-8.297 3.714c0 0-15.755-35.332-15.755-35.332-5.694-12.754 0.455-24.485 13.177-30.188 0 0 0 0 0 0zM770.841 560.042c0 0 2.342-1.462 2.342-1.462s32.115 51.903 32.115 51.903c0 0-7.705 4.796-7.705 4.796s-14.89-24.054-14.89-24.054c-2.238-3.642-4.997-8.053-7.215-12.021 0 0-0.204 0-0.204 0-0.761 5.736-2.203 13.702-3.135 18.786 0 0-7.031 37.428-7.031 37.428s-5.353 3.255-5.353 3.255c0 0-31.441-50.754-31.441-50.754s7.727-4.803 7.727-4.803c0 0 15.77 25.464 15.77 25.464 2.392 3.821 5.050 8.142 7.747 12.871 0 0 0.199-0.030 0.199-0.030 0.95-6.29 2.17-14.139 3.424-20.626 0 0 7.653-40.75 7.653-40.75s0 0 0 0zM795.676 542.315c12.914-10.577 31.732-12.309 43.982 2.625 12.295 14.87 6.879 33.027-5.982 43.614 0 0-14.211 11.67-14.211 11.67s-37.997-46.202-37.997-46.202c0 0 14.211-11.708 14.211-11.708s0 0 0 0zM827.54 583.625c10.42-8.56 14.589-21.081 4.948-32.843-9.637-11.693-22.712-10.077-33.147-1.494 0 0-5.999 4.938-5.999 4.938s28.187 34.333 28.187 34.333c0 0 6.014-4.93 6.014-4.93s0 0 0 0zM868.588 469.153c0 0 5.965-6.986 5.965-6.986s29.591 58.73 29.591 58.73c0 0-2.064 2.491-2.064 2.491s-62.713-19.925-62.713-19.925c0 0 5.728-6.765 5.728-6.765s16.009 5.087 16.009 5.087c0 0 15.059-17.697 15.059-17.697s-7.573-14.937-7.573-14.937c0 0 0 0 0 0zM886.954 505.141c0 0-7.287-13.998-7.287-13.998s-11.079 13.003-11.079 13.003c0 0 14.957 4.958 14.957 4.958 2.034 0.617 4.866 1.681 7.235 2.827 0 0 0.117-0.147 0.117-0.147-1.442-2.21-2.998-4.759-3.943-6.641 0 0 0 0 0 0zM0.003 189.024c0 0 1.146-35.506 1.146-35.506s7.784 0.259 7.784 0.259c0 0-0.818 26.399-0.818 26.399s52.107 1.681 52.107 1.681c0 0-0.283 9.115-0.283 9.115s-59.939-1.947-59.939-1.947c0 0 0 0 0 0zM52.993-37.165c0 0 3.744-8.289 3.744-8.289s54.551 24.723 54.551 24.723c0 0-3.759 8.282-3.759 8.282s-23.604-10.666-23.604-10.666c0 0-12.725 28.095-12.725 28.095s23.6 10.741 23.6 10.741c0 0-3.774 8.252-3.774 8.252s-54.546-24.721-54.546-24.721c0 0 3.734-8.257 3.734-8.257s23.868 10.788 23.868 10.788c0 0 12.757-28.134 12.757-28.134s-23.851-10.813-23.851-10.813c0 0 0 0 0 0zM65.255-60.621c0 0 18.227-30.601 18.227-30.601s6.668 4.025 6.668 4.025c0 0-13.543 22.762-13.543 22.762s15.832 9.398 15.832 9.398c0 0 9.945-16.693 9.945-16.693s6.7 3.963 6.7 3.963c0 0-9.96 16.7-9.96 16.7s15.571 9.291 15.571 9.291c0 0 11.877-19.94 11.877-19.94s6.698 4.005 6.698 4.005c0 0-16.546 27.754-16.546 27.754s-51.47-30.66-51.47-30.66c0 0 0 0 0 0zM125.919-146.928c0 0 6.039-6.84 6.039-6.84s44.907 39.556 44.907 39.556c0 0-5.969 6.84-5.969 6.84s-44.976-39.556-44.976-39.556c0 0 0 0 0 0zM196.057-145.021c0 0 13.821-13.393 13.821-13.393s5.437 5.577 5.437 5.577c0 0-34.179 33.194-34.179 33.194s-5.437-5.619-5.437-5.619c0 0 13.804-13.436 13.804-13.436s-36.324-37.388-36.324-37.388c0 0 6.584-6.347 6.584-6.347s36.294 37.416 36.294 37.416c0 0 0 0 0 0zM284.45-270.741c0 0 32.284-15.017 32.284-15.017s3.279 7.086 3.279 7.086c0 0-24.037 11.171-24.037 11.171s7.782 16.693 7.782 16.693c0 0 17.642-8.195 17.642-8.195s3.262 7.046 3.262 7.046c0 0-17.61 8.232-17.61 8.232s7.65 16.434 7.65 16.434c0 0 21.041-9.791 21.041-9.791s3.292 7.058 3.292 7.058c0 0-29.303 13.635-29.303 13.635s-25.285-54.349-25.285-54.349c0 0 0 0 0 0zM576.418-260.63c0 0 19.112 2.352 19.112 2.352s-0.965 7.737-0.965 7.737c0 0-47.231-5.798-47.231-5.798s0.965-7.755 0.965-7.755c0 0 19.112 2.345 19.112 2.345s6.352-51.729 6.352-51.729c0 0 9.043 1.121 9.043 1.121s-6.387 51.726-6.387 51.726c0 0 0 0 0 0zM668.929-293.316c0 0 8.707 2.795 8.707 2.795s-18.433 57.082-18.433 57.082c0 0-8.707-2.795-8.707-2.795s18.433-57.082 18.433-57.082c0 0 0 0 0 0zM837.602-202.543c0 0 7.031 5.795 7.031 5.795s-38.37 46.122-38.37 46.122c0 0-6.962-5.855-6.962-5.855s38.298-46.060 38.298-46.060c0 0 0 0 0 0zM908.482-132.317c0 0 21.717 28.124 21.717 28.124s-6.168 4.771-6.168 4.771c0 0-16.176-20.934-16.176-20.934s-14.517 11.223-14.517 11.223c0 0 11.845 15.385 11.845 15.385s-6.168 4.759-6.168 4.759c0 0-11.859-15.37-11.859-15.37s-14.328 11.076-14.328 11.076c0 0 14.197 18.314 14.197 18.314s-6.183 4.789-6.183 4.789c0 0-19.733-25.544-19.733-25.544s47.381-36.593 47.381-36.593c0 0 0 0 0 0zM1023.747 217.131c0 0-0.577 9.082-0.577 9.082s-59.802-3.62-59.802-3.62c0 0 0.542-9.102 0.542-9.102s59.837 3.64 59.837 3.64c0 0 0 0 0 0zM1011.227 306.343c0 0-9.1 34.365-9.1 34.365s-7.553-2.001-7.553-2.001c0 0 6.763-25.546 6.763-25.546s-50.451-13.354-50.451-13.354c0 0 2.335-8.811 2.335-8.811s58.007 15.348 58.007 15.348c0 0 0 0 0 0zM184.299 569.423c0 0 14.353 12.792 14.353 12.792s-5.176 5.82-5.176 5.82c0 0-35.474-31.633-35.474-31.633s5.191-5.818 5.191-5.818c0 0 14.348 12.787 14.348 12.787s34.599-38.798 34.599-38.798c0 0 6.817 6.049 6.817 6.049s-34.661 38.803-34.661 38.803c0 0 0 0 0 0zM279.582 575.179c0 0 7.782 4.657 7.782 4.657s-30.633 51.344-30.633 51.344c0 0-7.817-4.639-7.817-4.639s30.665-51.361 30.665-51.361c0 0 0 0 0 0zM495.411 640.943c0 0 9.115 0.296 9.115 0.296s-1.959 59.727-1.959 59.727c0 0-9.050-0.296-9.050-0.296s1.897-59.727 1.897-59.727c0 0 0 0 0 0zM826.968 514.755c0 0 6.469-6.38 6.469-6.38s41.98 42.557 41.98 42.557c0 0-6.469 6.382-6.469 6.382s-41.98-42.56-41.98-42.56c0 0 0 0 0 0zM877.501 457.161c0 0 19.917-29.3 19.917-29.3s6.424 4.371 6.424 4.371c0 0-14.826 21.757-14.826 21.757s42.98 29.253 42.98 29.253c0 0-5.084 7.518-5.084 7.518s-49.412-33.599-49.412-33.599c0 0 0 0 0 0z" />
<glyph unicode="&#x46;" glyph-name="logo_Twitter" data-tags="logo_Twitter" d="M1024 192.014c0 282.79-229.208 512.039-511.995 512.039-282.8 0-512.005-229.249-512.005-512.039 0-282.764 229.208-512.067 512.005-512.067 0 0 0 0 0 0 282.792 0 511.995 229.306 511.995 512.067zM404.963 66.949c-49.049 0.931-90.374 33.254-104.573 77.729 17.493-3.325 34.775-2.317 50.541 1.942-53.866 10.809-91.002 59.333-89.787 111.157 15.068-8.345 32.316-13.403 50.678-14.026-49.812 33.353-63.941 99.205-34.64 149.498 55.18-67.722 137.691-112.331 230.699-116.939-16.283 69.971 36.82 137.448 109.044 137.448 32.215 0 61.311-13.617 81.745-35.37 25.497 5.058 49.429 14.344 71.047 27.157-8.347-26.151-26.048-48.144-49.191-61.896 22.655 2.666 44.239 8.696 64.295 17.592-14.998-22.446-33.986-42.182-55.84-57.945 7.062-157.434-110.365-332.956-318.198-332.956-63.181 0-122.033 18.461-171.566 50.303 59.374-7.036 118.669 9.387 165.747 46.311z" />
<glyph unicode="&#x47;" glyph-name="logo_Youtube" data-tags="logo_Youtube" d="M1024 192.015c0 282.789-229.206 512.037-511.997 512.037-282.764 0-512.002-229.249-512.002-512.037 0-282.764 229.239-512.067 512.002-512.067 0 0 0 0 0 0 282.794 0 511.997 229.306 511.997 512.067zM845.527 192.015c0 0 0-118.742-13.924-175.658-7.658-31.381-30.241-56.118-58.959-64.502-51.99-15.204-260.659-15.204-260.659-15.204s-208.494 0-260.522 15.204c-28.748 8.383-51.3 33.118-58.991 64.502-13.956 56.916-13.956 175.658-13.956 175.658s0 118.71 13.956 175.658c7.691 31.376 30.241 56.113 58.991 64.494 52.028 15.207 260.522 15.207 260.522 15.207s208.669 0 260.659-15.207c28.715-8.381 51.3-33.116 58.959-64.494 13.924-56.948 13.924-175.658 13.924-175.658zM433.997 84.234c0 0 0 215.625 0 215.625s218.985-107.834 218.985-107.834c0 0-218.985-107.791-218.985-107.791z" />
<glyph unicode="&#x48;" glyph-name="logo_Facebook" data-tags="logo_Facebook" d="M1024 192.015c0 282.778-229.235 512.017-512.017 512.017-282.753 0-511.982-229.24-511.982-512.017 0-282.753 229.23-512.047 511.982-512.047 0 0 0 0 0 0 282.783 0 512.017 229.297 512.017 512.047zM433.981 193.37c0 0-64.844 0-64.844 0s0 105.782 0 105.782c0 0 64.844 0 64.844 0s0 83.34 0 83.34c0 78.147 41.805 118.983 134.564 118.983 0 0 86.288 0 86.288 0s0-108.457 0-108.457c0 0-67.442 0-67.442 0-23.829 0-28.747-9.733-28.747-34.325 0 0 0-59.544 0-59.544s96.191 0 96.191 0c0 0-9.286-104.539-9.286-104.539s-86.906 0-86.906 0c0 0 0-312.080 0-312.080s-124.663 0-124.663 0c0 0 0 310.837 0 310.837z" />
<glyph unicode="&#x49;" glyph-name="logo_Instagram" data-tags="logo_Instagram" d="M512.002 285.562c-51.685 0-93.562-41.845-93.562-93.557 0-51.757 41.88-93.592 93.562-93.592 51.677 0 93.557 41.835 93.557 93.592 0 51.712-41.88 93.557-93.557 93.557zM512.002 703.997c-282.764 0-512.002-229.206-512.002-511.96 0-282.796 229.239-512.035 512.002-512.035 282.791 0 511.997 229.239 511.997 512.035 0 282.754-229.206 511.96-511.997 511.96zM791.084 76.298c-1.382-29.895-6.13-50.302-13.055-68.172-7.172-18.502-16.802-34.090-32.425-49.742-15.617-15.585-31.242-25.182-49.705-32.355-17.875-6.925-38.242-11.67-68.137-13.055-29.962-1.355-39.522-1.667-115.759-1.667-76.245 0-85.802 0.312-115.764 1.667-29.862 1.385-50.265 6.13-68.14 13.055-18.46 7.172-34.15 16.77-49.705 32.355-15.622 15.655-25.252 31.24-32.355 49.742-6.957 17.872-11.742 38.277-13.090 68.172-1.387 29.93-1.7 39.45-1.7 115.722 0 76.247 0.312 85.802 1.7 115.732 1.347 29.895 6.13 50.302 13.090 68.17 7.105 18.43 16.732 34.125 32.355 49.742 15.555 15.587 31.245 25.185 49.705 32.357 17.875 6.957 38.277 11.702 68.14 13.022 29.962 1.387 39.522 1.732 115.764 1.732s85.797-0.345 115.759-1.732c29.895-1.32 50.262-6.065 68.137-13.022 18.462-7.172 34.087-16.77 49.705-32.357 15.622-15.617 25.252-31.315 32.425-49.742 6.925-17.87 11.672-38.275 13.055-68.17 1.355-29.93 1.667-39.485 1.667-115.732 0-76.272-0.312-85.792-1.667-115.722zM740.549 305.469c-1.282 27.29-5.82 42.26-9.695 52.13-5.057 13.055-11.157 22.455-20.995 32.287-9.835 9.835-19.19 15.9-32.25 20.992-9.94 3.847-24.802 8.415-52.167 9.665-29.615 1.347-38.482 1.592-113.437 1.592-74.962 0-83.83-0.245-113.447-1.592-27.332-1.25-42.225-5.817-52.097-9.665-13.127-5.092-22.482-11.157-32.285-20.992-9.837-9.832-15.932-19.23-21.027-32.287-3.81-9.87-8.415-24.84-9.695-52.13-1.282-29.615-1.627-38.487-1.627-113.449 0-74.952 0.345-83.825 1.627-113.437 1.28-27.402 5.885-42.26 9.695-52.13 5.095-13.132 11.19-22.455 21.027-32.29 9.802-9.835 19.157-15.897 32.285-20.99 9.875-3.847 24.765-8.415 52.097-9.667 29.617-1.317 38.485-1.657 113.447-1.657 74.957 0 83.825 0.337 113.437 1.657 27.367 1.252 42.227 5.82 52.167 9.667 13.060 5.092 22.415 11.155 32.25 20.99s15.935 19.157 20.995 32.29c3.875 9.87 8.412 24.727 9.695 52.13 1.355 29.615 1.627 38.487 1.627 113.437 0 74.962-0.275 83.832-1.627 113.449zM512.002 47.866c-79.605 0-144.174 64.502-144.174 144.139 0 79.602 64.567 144.164 144.174 144.164 79.635 0 144.169-64.56 144.169-144.164 0-79.64-64.535-144.139-144.169-144.139zM661.844 308.192c-18.6 0-33.67 15.070-33.67 33.71 0 18.562 15.067 33.63 33.67 33.63s33.705-15.067 33.705-33.63c0-18.64-15.105-33.71-33.705-33.71z" />
<glyph unicode="&#x4a;" glyph-name="tgn_amb_ona" data-tags="tgn_amb_ona" d="M1024 150.884c-4.569-1.778-9.203-3.416-13.888-4.906-59.073-18.795-125.381-15.040-184.633 15.592-38.899 20.11-82.626 21.456-120.773 7.405 0 0-28.011 88.017-28.011 88.017 60.72 21.2 129.696 18.436 191.080-13.319 41.479-21.357 88.343-21.521 128.126-4.45 0 0 28.097-88.338 28.097-88.338zM91.326 82.179c21.184 0 36.54 4.991 49.839 12.872 0 0 0 50.649 0 50.649-9.139-4.978-19.524-7.882-31.139-7.882-14.12 0-20.343 7.064-20.343 21.587 0 0 0 95.077 0 95.077s52.302 0 52.302 0c0 0 0 53.975 0 53.975s-52.302 0-52.302 0c0 0 0 56.882 0 56.882s-63.118 0-63.118 0c0 0 0-56.882 0-56.882s-26.565 0-26.565 0c0 0 0-53.975 0-53.975s26.565 0 26.565 0c0 0 0-105.455 0-105.455 0-51.486 26.149-66.847 64.761-66.847zM265.294 18.663c43.19 0 75.147 9.132 95.917 29.895 18.679 18.68 28.226 47.747 28.226 87.598 0 0 0 172.303 0 172.303s-63.094 0-63.094 0c0 0 0-29.069 0-29.069-17.043 18.692-37.383 33.212-71.843 33.212-51.053 0-98.8-37.357-98.8-103.793 0 0 0-0.829 0-0.829 0-66.014 46.905-103.793 98.8-103.793 33.636 0 53.987 13.7 72.664 36.127 0 0 0-10.8 0-10.8 0-39.861-20.34-60.615-63.531-60.615-29.477 0-52.303 7.473-75.148 20.338 0 0-21.574-47.33-21.574-47.33 28.226-14.945 62.279-23.246 98.385-23.246zM272.764 156.499c-30.706 0-53.962 20.763-53.962 51.481 0 0 0 0.829 0 0.829 0 30.309 23.256 51.484 53.962 51.484 30.73 0 54.398-21.175 54.398-51.484 0 0 0-0.829 0-0.829 0-30.312-23.668-51.481-54.398-51.481zM429.308 308.458c0 0 0-222.546 0-222.546s63.1 0 63.1 0c0 0 0 124.151 0 124.151 0 29.886 15.371 45.249 39.45 45.249s38.179-15.362 38.179-45.249c0 0 0-124.151 0-124.151s63.118 0 63.118 0c0 0 0 144.073 0 144.073 0 51.069-27.81 82.623-75.554 82.623-31.982 0-50.664-17.020-65.193-35.703 0 0 0 31.553 0 31.553s-63.1 0-63.1 0c0 0 0 0 0 0z" />
<glyph unicode="&#x4b;" glyph-name="ona" data-tags="ona" d="M1023.999 39.557c-13.468-5.244-27.135-10.072-40.944-14.466-174.174-55.418-369.677-44.344-544.377 45.972-114.692 59.293-243.618 63.262-356.092 21.833 0 0-82.586 259.514-82.586 259.514 179.031 62.507 382.397 54.355 563.387-39.272 122.298-62.97 260.474-63.451 377.771-13.122 0 0 82.842-260.458 82.842-260.458z" />
<glyph unicode="&#x4c;" glyph-name="simbol_Camara" data-tags="simbol_Camara" d="M922.731 458.17h-160.851c-4.829 0-11.492 1.559-20.324 13.814l-65.007 90.618c-21.913 30.501-52.293 47.311-85.484 47.311h-158.1c-33.711 0-63.295-16.382-85.575-47.341l-64.976-90.588c-9.902-13.814-17.451-13.814-20.324-13.814h-160.851c-55.838 0-101.254-45.416-101.254-101.223v-490.744c0-55.838 45.447-101.284 101.254-101.284h821.492c55.838 0 101.254 45.447 101.254 101.284v490.744c0 55.807-45.416 101.223-101.254 101.223zM943.666 356.946v-490.744c0-11.553-9.383-20.935-20.935-20.935h-821.492c-11.553 0-20.966 9.413-20.966 20.935v490.744c0 11.553 9.413 20.935 20.966 20.935h160.851c33.313 0 63.723 16.809 85.606 47.341l64.976 90.526c8.833 12.225 15.495 13.784 20.294 13.784h158.1c2.842 0 10.361 0 20.263-13.753l64.976-90.618c22.219-30.929 51.834-47.311 85.575-47.311h160.851c11.553 0 20.935-9.413 20.935-20.935zM228.471 318.651v-49.267c0-16.687-13.6-30.318-30.379-30.318h-49.267c-16.748 0-30.379 13.6-30.379 30.318v49.267c0 16.748 13.631 30.349 30.379 30.349h49.267c16.748 0 30.379-13.6 30.379-30.349zM511.939 379.716c-136.798 0-248.077-111.278-248.077-248.046s111.278-248.077 248.077-248.077c136.829 0 248.138 111.309 248.138 248.077s-111.309 248.046-248.138 248.046zM511.939-36.15c-92.513 0-167.758 75.306-167.758 167.819s75.245 167.789 167.758 167.789c92.544 0 167.819-75.245 167.819-167.789s-75.276-167.819-167.819-167.819z" />
<glyph unicode="&#x4d;" glyph-name="simbol_Ull" data-tags="simbol_Ull" d="M506.525 414.997c-121.478 0-220.327-98.822-220.327-220.327 0-121.451 98.822-220.273 220.327-220.273 121.451 0 220.246 98.822 220.246 220.273 0 121.478-98.795 220.327-220.246 220.327zM506.525 343.632c82.1 0 148.907-66.834 148.907-148.934s-66.807-148.934-148.907-148.934c-82.127 0-148.934 66.834-148.934 148.934s66.807 148.934 148.934 148.934zM1020.864 205.539c-103.299 184.644-291.288 297.383-502.822 301.483-210.698 4.963-403.569-100.818-514.15-281.416-3.398-5.529-4.315-11.921-3.102-17.801-1.51-5.826-0.89-12.245 2.212-17.936 102.086-186.667 290.047-300.593 502.741-304.8l12.218-0.135c207.624 0 395.423 106.482 502.391 284.842 3.371 5.61 4.234 12.002 2.94 17.909 1.483 6.015 0.62 12.407-2.427 17.855zM947.853 188.79c-97.501-148.934-260.406-235.512-440.627-232.356-179.277 3.533-339.296 96.53-430.998 249.537 98.525 147.559 262.375 232.545 440.465 229.74 178.36-3.479 338.46-95.505 431.133-246.893z" />
<glyph unicode="&#x4e;" glyph-name="simbol_Casa" data-tags="simbol_Casa" d="M994.236 328.281h-159.767l-302.376 277.194c-11.384 10.471-28.835 10.471-40.219 0l-302.311-277.194h-159.832c-16.44 0-29.748-13.341-29.748-29.748v-488.303c0-16.44 13.341-29.748 29.748-29.748h964.505c16.44 0 29.748 13.341 29.748 29.748v488.303c0 16.44-13.341 29.748-29.748 29.748zM86.292-133.242v375.247h125.256c7.437 0 14.613 2.805 20.126 7.829l280.359 257.036 280.391-257.036c5.48-5.023 12.656-7.829 20.093-7.829h125.256v-375.247h-851.448z" />
<glyph unicode="&#x4f;" glyph-name="simbol_Menu" data-tags="simbol_Menu" d="M1008.316 669.052v-31.599c0-19.398-15.742-35.102-35.102-35.102h-922.39c-19.398 0-35.102 15.742-35.102 35.102v31.599c0 19.398 15.742 35.102 35.102 35.102h922.39c19.398 0 35.102-15.742 35.102-35.102zM973.175 473.49h-922.39c-19.398 0-35.102-15.742-35.102-35.102v-31.599c0-19.398 15.742-35.102 35.102-35.102h922.39c19.398 0 35.102 15.742 35.102 35.102v31.599c0 19.398-15.742 35.102-35.102 35.102zM973.175 242.94h-922.39c-19.398 0-35.102-15.742-35.102-35.102v-31.638c0-19.398 15.742-35.102 35.102-35.102h922.39c19.398 0 35.102 15.742 35.102 35.102v31.638c0 19.398-15.742 35.102-35.102 35.102zM973.175 12.314h-922.39c-19.398 0-35.102-15.742-35.102-35.102v-31.561c0-19.398 15.742-35.102 35.102-35.102h922.39c19.398 0 35.102 15.742 35.102 35.102v31.561c0 19.398-15.742 35.102-35.102 35.102zM973.175-218.351h-922.39c-19.398 0-35.102-15.742-35.102-35.102v-31.599c0-19.398 15.742-35.102 35.102-35.102h922.39c19.398 0 35.102 15.742 35.102 35.102v31.599c0 19.398-15.742 35.102-35.102 35.102z" />
<glyph unicode="&#x50;" glyph-name="simbol_Cor" data-tags="simbol_Cor" d="M744.084 643c-94.066 0-180.74-47.685-232.085-123.525-51.345 75.804-138.019 123.525-232.049 123.525-154.361 0-279.951-125.627-279.951-280.060 0-307.707 373.582-547.112 487.976-613.132l7.392-4.312c5.145-2.971 10.87-4.493 16.632-4.493 5.689 0 11.414 1.449 16.559 4.421l7.428 4.312c114.502 66.056 488.012 305.642 488.012 613.204 0 154.433-125.554 280.060-279.951 280.060zM279.987 547.159c101.53 0 184.146-82.652 184.146-184.219 0-18.262 14.82-33.046 33.046-33.046h29.749c18.262 0 33.046 14.82 33.046 33.046 0 101.567 82.579 184.219 184.11 184.219s184.074-82.652 184.074-184.219c0-195.705-211.866-392.823-416.122-516.131-204.293 123.344-416.195 320.462-416.195 516.131 0 101.567 82.616 184.219 184.146 184.219z" />
<glyph unicode="&#x51;" glyph-name="simbol_Llibre" data-tags="simbol_Llibre" d="M1003.95 591.428l-9.023 2.48c-161.733 45.027-342.947 15.328-482.958-79.597-140.041 94.984-320.747 124.773-483.167 79.567l-8.934-2.51c-11.742-3.317-19.869-14.013-19.869-26.233v-679.35c0-8.515 3.974-16.493 10.726-21.692 6.782-5.139 15.537-6.782 23.754-4.601l15.656 4.303c146.017 40.754 310.409 10.726 433.509-80.134l12.28-8.993c4.781-3.526 10.428-5.259 16.075-5.259s11.294 1.733 16.075 5.259l12.34 9.023c122.801 90.711 286.656 120.979 433.479 80.105l15.597-4.303c8.127-2.271 17.001-0.568 23.754 4.571 6.782 5.139 10.756 13.176 10.756 21.692v679.41c0 12.28-8.187 23.036-20.019 26.263zM551.468 445.919c113.061 78.581 258.301 108.041 393.412 78.999v-573.401c-132.9 24.68-275.122 0.508-393.412-66.36v560.792zM79.027 524.918c134.782 28.863 280.381-0.388 393.412-78.999v-560.732c-87.246 49.33-187.608 76.101-287.552 76.101-35.466 0-70.932-3.257-105.86-9.711v573.371z" />
<glyph unicode="&#x52;" glyph-name="simbol_Quadrat" data-tags="simbol_Quadrat" d="M986.101 704.001h-948.202c-20.945 0-37.9-16.997-37.9-37.9v-948.202c0-20.945 16.997-37.9 37.9-37.9h948.202c20.945 0 37.9 16.997 37.9 37.9v948.202c0 20.945-16.997 37.9-37.9 37.9zM109.876-210.042v804.042h804.083v-804.042h-804.083z" />
<glyph unicode="&#x53;" glyph-name="simbol_Grafica" data-tags="simbol_Grafica" d="M995.845 576.68l-0.030 0.030c-12.939 12.034-33.328 11.461-45.362-1.448l-436.974-465.024-115.034 108.037-9.139 9.018c-6.605 6.545-15.835 10.134-23.707 9.229-8.807-0.271-17.192-4.313-22.922-10.828l-334.004-356.082c-5.851-6.274-8.928-14.387-8.656-22.953 0.271-8.505 3.981-16.619 10.104-22.38l18.097-16.981c5.972-5.58 13.784-8.656 21.957-8.656 8.837 0 17.373 3.68 23.405 10.104l295.85 314.821 124.505-117.116c5.912-5.58 14.085-8.747 23.134-8.807 8.505 0.271 16.709 4.042 22.5 10.255l475.761 506.465c5.851 6.274 8.928 14.387 8.656 22.953-0.271 8.505-3.981 16.619-10.104 22.38l-18.006 16.92z" />
<glyph unicode="&#x54;" glyph-name="simbol_Cercle" data-tags="simbol_Cercle" d="M512.236 704.009c-53.879 0-107.359-8.574-158.965-25.484-130.051-42.393-235.655-132.883-297.55-254.798-61.895-122.035-72.623-260.78-30.19-390.672 68.914-211.169 264.409-353.064 486.505-353.064 53.799 0 107.279 8.574 158.965 25.484 268.278 87.618 415.238 377.152 327.7 645.43-69.073 211.169-264.569 353.104-486.505 353.104zM512.236 586.401c170.929 0 321.439-109.313 374.64-272.106 32.622-99.861 24.287-206.622-23.45-300.621s-129.094-163.75-229.075-196.413c-39.841-13.041-80.998-19.661-122.314-19.661-171.009 0.040-321.598 109.313-374.759 271.947-32.622 100.141-24.367 207.021 23.37 300.9 47.578 93.839 128.895 163.551 229.075 196.253 39.801 13.041 80.998 19.661 122.514 19.661z" />
<glyph unicode="&#x55;" glyph-name="simbol_Creu" data-tags="simbol_Creu" d="M1011.002-210.936l-421.727 402.957 421.727 402.957c16.64 15.891 17.311 42.39 1.538 59.148l-15.615 16.522c-7.729 8.162-18.178 12.815-29.653 13.17-11.751-0.079-22.121-4.14-29.89-11.632l-425.434-406.546-425.394 406.546c-8.675 8.202-19.519 12.145-30.718 11.554-11.278-0.434-22.121-5.56-29.574-13.92l-13.998-14.866c-7.926-7.965-12.382-18.927-12.263-30.166 0.079-11.199 4.811-22.043 12.973-29.89l421.727-402.957-421.766-402.997c-16.562-15.891-17.232-42.429-1.459-59.148l15.615-16.483c7.808-8.202 18.257-12.815 29.732-13.131 11.554 0.237 22.121 4.338 29.732 11.632l425.394 406.506 425.434-406.506c7.886-7.492 18.178-11.632 28.983-11.632 11.199 0 21.727 4.338 29.771 12.421l17.114 18.139c15.181 16.956 14.156 42.547-2.287 58.281z" />
<glyph unicode="&#x56;" glyph-name="simbol_Lupa" data-tags="simbol_Lupa" d="M668.931 625.26c152.962 0 276.244-123.366 276.244-276.223 0-152.92-123.282-276.16-276.244-276.16-152.751 0-276.16 123.24-276.16 276.16 0 152.878 123.387 276.223 276.16 276.223zM668.931 704.127c-195.71 0-355.069-159.464-355.069-355.069 0-83.595 30.187-159.654 78.909-220.366l-392.771-392.75 55.54-56.068 393.046 393.003c60.691-48.743 136.877-78.951 220.345-78.951 195.689 0 355.069 159.401 355.069 355.111 0 195.626-159.401 355.090-355.069 355.090z" />
<glyph unicode="&#x57;" glyph-name="simbol_Mon" data-tags="simbol_Mon" d="M753.2 433.184c64.448-64.4 99.936-150.096 99.936-241.184 0-91.12-35.488-176.816-99.936-241.248-64.4-64.416-150.064-99.872-241.2-99.872s-176.784 35.472-241.216 99.872c-64.432 64.432-99.92 150.128-99.92 241.248 0 91.088 35.488 176.784 99.92 241.184 64.432 64.432 150.080 99.936 241.216 99.936s176.8-35.488 241.2-99.936v0zM723.040-19.088c42.032 42.032 69.968 94.368 81.504 151.28-8.992-13.216-17.584-18.096-22.88 11.504-5.488 48.224-49.808 17.408-77.648 34.528-29.328-19.744-95.216 38.432-84.032-27.184 17.264-29.6 93.296 39.616 55.408-23.008-24.192-43.712-88.368-140.56-80.032-190.752 1.040-73.12-74.72-15.248-100.816 9.024-17.552 48.56-5.968 133.472-51.904 157.28-49.824 2.192-92.608 6.72-111.92 62.4-11.648 39.84 12.336 99.216 55.088 108.368 62.512 39.28 84.88-46 143.504-47.632 18.208 19.088 67.84 25.12 71.92 46.496-38.448 6.784 48.832 32.352-3.664 46.88-28.976-3.392-47.632-30.016-32.208-52.592-56.144-13.056-57.936 81.216-111.904 51.472-1.36-47.024-88.080-15.248-29.984-5.696 19.952 8.704-32.56 33.984-4.208 29.392 13.952 0.752 60.848 17.2 48.16 28.256 26.112 16.208 48.080-38.848 73.648 1.28 18.448 30.816-7.744 36.496-30.864 20.88-13.056 14.592 23.024 46.128 54.832 59.808 10.64 4.528 20.736 7.008 28.496 6.304 16.048-18.512 45.664-21.712 47.216 2.24-39.696 19.008-83.44 29.024-128.784 29.024-65.040 0-126.896-20.656-178.128-58.88 13.792-6.32 21.6-14.16 8.352-24.192-10.336-30.672-52.096-71.872-88.768-66.064-19.072-32.832-31.6-69.008-36.976-106.944 30.736-10.176 37.824-30.304 31.2-37.008-15.648-13.664-25.28-33.008-30.256-54.224 10.016-61.152 38.784-117.568 83.472-162.288 56.384-56.336 131.344-87.408 211.072-87.408 79.776 0.048 154.752 31.104 211.104 87.456v0z" />
<glyph unicode="&#x58;" glyph-name="simbol_Fletxa_dreta" data-tags="simbol_Fletxa_dreta" d="M276.41-320.154c17.823 0 35.646 6.801 49.33 20.404l491.686 491.748-491.686 491.707c-27.246 27.246-71.414 27.287-98.702 0-27.287-27.246-27.287-71.373 0-98.62l393.025-393.087-393.025-393.046c-27.287-27.246-27.287-71.455 0-98.702 13.562-13.603 31.487-20.404 49.371-20.404z" />
<glyph unicode="&#x59;" glyph-name="simbol_Fletxa_esquerra" data-tags="simbol_Fletxa_esquerra" d="M747.589-320.154c-17.823 0-35.646 6.801-49.33 20.404l-491.686 491.748 491.686 491.707c27.246 27.246 71.414 27.287 98.702 0 27.287-27.246 27.287-71.373 0-98.62l-393.025-393.087 393.025-393.046c27.287-27.246 27.287-71.455 0-98.702-13.562-13.603-31.487-20.404-49.371-20.404z" />
<glyph unicode="&#x5a;" glyph-name="simbol_Punts" data-tags="simbol_Punts" d="M630.16 192c0-65.258-52.902-118.16-118.16-118.16s-118.16 52.902-118.16 118.16c0 65.258 52.902 118.16 118.16 118.16s118.16-52.902 118.16-118.16zM268.288 192c0-65.249-52.895-118.144-118.144-118.144s-118.144 52.895-118.144 118.144c0 65.249 52.895 118.144 118.144 118.144s118.144-52.895 118.144-118.144zM992 192c0-65.249-52.895-118.144-118.144-118.144s-118.144 52.895-118.144 118.144c0 65.249 52.895 118.144 118.144 118.144s118.144-52.895 118.144-118.144z" />
<glyph unicode="&#x5b;" glyph-name="simbol_Punt" data-tags="simbol_Punt" horiz-adv-x="320" d="M278.146 192c0-65.249-52.895-118.144-118.144-118.144s-118.144 52.895-118.144 118.144 52.895 118.144 118.144 118.144 118.144-52.895 118.144-118.144z" />
</font></defs></svg>